CustomerID,RecencyScore,FrequencyScore,MonetaryScore
12346.0,3,0,3
12347.0,0,3,3
12348.0,2,1,3
12349.0,1,2,3
12350.0,3,0,1
12352.0,1,2,3
12353.0,3,0,0
12354.0,3,2,2
12355.0,3,0,1
12356.0,1,2,3
12357.0,1,3,3
12358.0,0,1,2
12359.0,2,3,3
12360.0,2,3,3
12361.0,3,0,0
12362.0,0,3,3
12363.0,2,1,1
12364.0,0,2,2
12365.0,3,1,1
12367.0,0,0,0
12370.0,2,3,3
12371.0,1,2,3
12372.0,2,2,2
12373.0,3,0,1
12374.0,1,1,2
12375.0,0,0,1
12377.0,3,2,2
12378.0,2,3,3
12379.0,2,1,2
12380.0,1,3,3
12381.0,0,2,3
12383.0,3,2,3
12384.0,1,1,1
12386.0,3,0,1
12388.0,0,2,3
12390.0,2,1,1
12391.0,1,2,1
12393.0,2,2,2
12394.0,2,1,2
12395.0,1,3,3
12397.0,1,3,3
12398.0,1,2,2
12399.0,2,2,2
12401.0,3,0,0
12402.0,3,0,0
12403.0,1,0,1
12405.0,3,2,3
12406.0,1,3,3
12407.0,1,2,3
12408.0,1,3,3
12409.0,2,3,3
12410.0,3,1,2
12412.0,2,2,2
12413.0,2,1,2
12414.0,3,1,1
12415.0,1,3,3
12417.0,0,3,3
12418.0,2,1,1
12420.0,2,1,1
12421.0,0,2,2
12422.0,2,1,2
12423.0,0,3,3
12424.0,3,1,3
12425.0,2,1,2
12426.0,3,1,1
12427.0,1,1,2
12428.0,1,3,3
12429.0,0,2,3
12430.0,1,0,0
12431.0,1,3,3
12432.0,1,3,3
12433.0,0,3,3
12434.0,2,2,2
12435.0,2,1,3
12436.0,2,0,1
12437.0,0,3,3
12438.0,0,2,3
12441.0,3,0,0
12442.0,0,0,0
12444.0,1,3,3
12445.0,1,0,0
12446.0,2,2,2
12447.0,3,1,1
12448.0,1,1,1
12449.0,1,3,3
12450.0,3,0,0
12451.0,0,3,3
12452.0,0,1,1
12453.0,2,2,2
12454.0,2,0,3
12455.0,2,2,3
12456.0,1,3,3
12457.0,2,2,3
12458.0,2,1,2
12461.0,2,1,2
12462.0,1,2,2
12463.0,2,2,2
12464.0,0,1,2
12465.0,0,2,2
12468.0,3,1,2
12471.0,0,3,3
12472.0,1,3,3
12473.0,1,3,3
12474.0,0,3,3
12475.0,2,1,2
12476.0,0,3,3
12477.0,1,3,3
12478.0,0,1,2
12479.0,0,1,1
12480.0,1,3,3
12481.0,1,3,3
12483.0,0,2,3
12484.0,1,3,3
12488.0,0,2,2
12489.0,3,0,1
12490.0,0,3,3
12491.0,1,1,1
12492.0,2,1,0
12493.0,3,1,1
12494.0,0,2,2
12497.0,2,0,2
12498.0,1,1,1
12500.0,1,2,3
12501.0,3,3,3
12502.0,2,3,3
12504.0,1,0,1
12506.0,3,1,0
12507.0,2,1,2
12508.0,1,2,1
12509.0,3,0,0
12510.0,3,1,2
12512.0,2,1,0
12513.0,2,1,1
12514.0,3,2,2
12515.0,3,0,1
12516.0,2,1,2
12517.0,1,3,3
12518.0,0,3,3
12519.0,2,1,1
12520.0,2,3,3
12521.0,3,1,1
12522.0,1,0,0
12523.0,1,3,3
12524.0,0,3,3
12526.0,0,2,2
12527.0,2,1,1
12528.0,0,2,3
12530.0,2,2,3
12531.0,0,0,0
12532.0,1,0,1
12534.0,2,2,2
12535.0,2,1,2
12536.0,1,3,3
12538.0,1,1,1
12539.0,1,3,3
12540.0,1,3,3
12541.0,1,2,2
12544.0,1,1,1
12545.0,2,2,2
12546.0,1,2,2
12547.0,3,0,0
12548.0,3,0,0
12550.0,2,2,2
12551.0,3,0,0
12552.0,1,1,1
12553.0,0,3,3
12556.0,1,3,1
12557.0,0,1,3
12558.0,0,0,0
12559.0,3,1,1
12560.0,0,3,3
12561.0,3,0,0
12562.0,0,3,3
12564.0,3,1,1
12565.0,3,0,0
12566.0,2,1,1
12567.0,1,3,3
12569.0,0,3,3
12571.0,1,1,1
12572.0,0,2,2
12573.0,3,1,0
12574.0,3,0,0
12576.0,1,2,2
12577.0,1,3,1
12578.0,1,3,3
12579.0,2,1,1
12580.0,3,1,1
12581.0,1,0,0
12582.0,3,1,1
12583.0,0,3,3
12584.0,0,2,3
12585.0,3,2,3
12586.0,0,0,0
12587.0,0,0,0
12588.0,1,0,0
12589.0,1,1,1
12590.0,3,2,3
12591.0,3,1,1
12592.0,2,1,1
12593.0,2,1,1
12594.0,1,3,3
12596.0,2,1,1
12597.0,1,3,3
12598.0,0,3,3
12599.0,1,2,2
12600.0,1,2,3
12601.0,3,1,1
12602.0,2,0,0
12603.0,1,0,2
12604.0,2,0,0
12607.0,2,3,2
12609.0,2,2,2
12610.0,1,3,3
12611.0,2,2,2
12612.0,2,1,2
12613.0,2,3,3
12614.0,3,1,1
12615.0,0,3,3
12616.0,2,1,2
12617.0,1,2,1
12618.0,1,0,0
12619.0,0,2,3
12620.0,0,2,2
12621.0,0,3,3
12622.0,3,0,0
12623.0,3,1,0
12624.0,2,1,1
12625.0,3,2,3
12626.0,1,3,3
12627.0,0,3,3
12628.0,0,1,2
12630.0,0,2,2
12631.0,2,1,1
12633.0,2,3,3
12635.0,2,3,3
12637.0,2,3,3
12638.0,1,1,1
12639.0,3,1,1
12640.0,1,2,2
12641.0,2,0,0
12642.0,1,2,2
12643.0,2,1,3
12644.0,2,1,1
12645.0,1,2,3
12646.0,0,2,2
12647.0,1,3,3
12648.0,3,1,1
12649.0,2,1,1
12650.0,0,1,1
12651.0,3,0,0
12652.0,3,2,2
12653.0,3,2,3
12654.0,0,1,1
12656.0,0,3,3
12657.0,0,2,2
12658.0,1,1,2
12659.0,1,0,0
12660.0,0,0,0
12662.0,0,3,3
12664.0,0,1,3
12665.0,3,0,0
12667.0,2,1,1
12668.0,0,3,3
12669.0,3,3,3
12670.0,0,2,3
12672.0,3,0,0
12673.0,0,2,1
12674.0,1,2,3
12676.0,1,2,2
12678.0,1,3,3
12679.0,2,2,2
12680.0,0,1,1
12681.0,0,3,3
12682.0,0,3,3
12683.0,0,3,3
12684.0,0,3,3
12685.0,1,3,3
12686.0,3,0,0
12688.0,2,3,3
12689.0,1,2,2
12690.0,3,0,1
12691.0,1,1,2
12693.0,2,1,2
12694.0,2,1,2
12695.0,0,1,1
12697.0,1,1,2
12700.0,0,3,3
12701.0,2,2,2
12702.0,1,0,0
12703.0,2,1,0
12704.0,0,2,3
12705.0,0,3,3
12707.0,3,1,1
12708.0,1,3,3
12709.0,0,3,3
12710.0,2,2,2
12712.0,1,3,3
12713.0,0,1,2
12714.0,0,3,3
12715.0,2,1,1
12716.0,0,2,2
12717.0,3,2,2
12718.0,2,1,0
12719.0,0,1,1
12720.0,0,3,3
12721.0,1,3,3
12722.0,2,2,2
12723.0,0,2,2
12724.0,0,2,2
12725.0,3,1,1
12726.0,1,3,3
12727.0,0,3,3
12728.0,2,2,2
12729.0,2,1,1
12731.0,1,3,3
12732.0,3,0,0
12733.0,3,1,1
12734.0,3,0,0
12735.0,3,2,2
12736.0,3,0,0
12738.0,3,0,0
12739.0,2,1,2
12740.0,2,1,1
12743.0,2,3,1
12744.0,2,3,3
12747.0,0,3,3
12748.0,0,3,3
12749.0,0,3,3
12750.0,2,0,0
12752.0,2,2,3
12753.0,1,3,3
12754.0,3,2,3
12755.0,3,0,3
12756.0,2,0,0
12757.0,0,3,3
12758.0,2,2,3
12759.0,2,2,2
12762.0,0,2,3
12763.0,2,1,1
12764.0,3,2,3
12766.0,0,3,3
12769.0,3,1,2
12770.0,3,0,2
12772.0,2,2,2
12775.0,0,2,2
12778.0,1,2,2
12779.0,1,3,3
12781.0,2,1,2
12782.0,0,3,3
12783.0,0,2,3
12784.0,0,2,1
12785.0,3,0,1
12787.0,0,1,1
12789.0,2,0,0
12790.0,3,1,1
12791.0,3,0,0
12792.0,3,1,1
12793.0,3,1,1
12794.0,2,2,2
12795.0,1,0,1
12797.0,3,0,0
12798.0,0,0,3
12802.0,3,1,1
12808.0,1,1,1
12809.0,3,1,1
12811.0,3,1,1
12812.0,1,0,0
12814.0,2,0,0
12815.0,3,2,2
12816.0,2,1,1
12817.0,3,0,0
12818.0,3,0,2
12820.0,0,2,2
12821.0,3,0,0
12822.0,2,2,2
12823.0,2,0,3
12824.0,2,1,1
12826.0,0,2,2
12827.0,0,1,1
12828.0,0,2,2
12829.0,3,0,0
12830.0,1,1,3
12831.0,3,0,0
12832.0,1,1,1
12833.0,3,1,1
12834.0,3,1,1
12836.0,2,3,3
12837.0,3,0,0
12838.0,1,3,2
12839.0,0,3,3
12840.0,3,3,3
12841.0,0,3,3
12842.0,2,1,2
12843.0,2,3,3
12844.0,1,2,1
12845.0,3,1,1
12847.0,1,2,2
12849.0,1,2,2
12851.0,2,2,0
12852.0,3,0,1
12853.0,2,2,3
12854.0,2,3,2
12855.0,3,0,0
12856.0,0,3,3
12857.0,3,2,2
12863.0,2,0,1
12864.0,2,0,0
12865.0,1,2,2
12866.0,3,1,1
12867.0,1,3,3
12868.0,3,3,2
12871.0,2,0,1
12872.0,3,2,1
12873.0,3,0,1
12875.0,3,0,1
12876.0,2,2,3
12877.0,0,3,2
12878.0,3,2,2
12879.0,1,0,1
12881.0,3,0,0
12882.0,0,0,2
12883.0,1,2,2
12884.0,2,0,1
12885.0,2,2,2
12886.0,2,2,2
12888.0,3,0,1
12890.0,1,2,1
12891.0,3,0,1
12893.0,1,1,0
12895.0,1,1,1
12897.0,3,0,0
12901.0,0,3,3
12902.0,3,0,0
12904.0,1,2,1
12906.0,0,2,3
12908.0,3,0,2
12909.0,1,2,3
12910.0,1,2,3
12912.0,0,1,3
12913.0,0,2,3
12915.0,3,1,1
12916.0,2,3,3
12917.0,2,0,1
12919.0,0,2,2
12920.0,0,1,0
12921.0,0,3,3
12922.0,3,1,1
12923.0,2,1,0
12924.0,2,1,2
12925.0,0,2,2
12928.0,1,2,3
12929.0,3,0,0
12930.0,2,1,1
12931.0,1,2,3
12933.0,1,3,1
12935.0,0,3,3
12936.0,0,2,2
12937.0,0,3,2
12938.0,1,0,0
12939.0,2,2,3
12940.0,2,2,2
12942.0,2,2,2
12944.0,1,1,1
12945.0,3,1,1
12947.0,3,2,2
12948.0,0,3,3
12949.0,1,3,3
12950.0,0,1,3
12951.0,0,2,2
12952.0,0,2,2
12953.0,0,0,1
12955.0,0,3,3
12956.0,3,1,0
12957.0,0,3,3
12962.0,0,0,0
12963.0,0,2,3
12965.0,2,3,2
12966.0,0,0,0
12967.0,3,1,2
12968.0,2,0,0
12970.0,0,3,1
12971.0,0,3,3
12974.0,3,0,0
12976.0,3,1,2
12977.0,3,0,0
12980.0,3,1,3
12981.0,1,1,1
12982.0,3,1,1
12984.0,1,0,0
12985.0,0,2,2
12987.0,2,1,1
12988.0,3,2,1
12989.0,0,2,3
12990.0,1,0,1
12991.0,1,1,1
12993.0,1,1,1
12994.0,0,2,2
12995.0,2,0,0
12997.0,1,2,2
12999.0,3,1,1
13000.0,2,1,1
13001.0,0,3,3
13002.0,3,0,0
13003.0,2,0,0
13004.0,0,3,3
13005.0,3,1,1
13006.0,2,0,0
13008.0,3,0,0
13011.0,3,0,0
13012.0,0,2,3
13013.0,0,3,3
13014.0,0,3,3
13015.0,2,3,3
13016.0,2,2,2
13017.0,0,0,0
13018.0,0,3,3
13021.0,0,3,3
13023.0,2,1,2
13026.0,0,1,2
13027.0,2,1,3
13028.0,1,2,1
13029.0,1,0,2
13030.0,0,2,2
13032.0,2,2,2
13033.0,3,0,0
13034.0,2,1,1
13035.0,2,1,2
13037.0,2,2,2
13038.0,2,1,2
13040.0,0,2,2
13043.0,3,0,1
13044.0,3,1,1
13045.0,2,1,0
13046.0,1,1,1
13047.0,1,3,3
13048.0,0,3,3
13049.0,2,0,1
13050.0,0,3,3
13052.0,3,1,1
13055.0,2,2,2
13058.0,1,0,0
13059.0,3,0,0
13060.0,3,0,1
13061.0,2,0,0
13062.0,3,0,1
13064.0,0,2,2
13065.0,3,0,0
13066.0,1,2,1
13067.0,2,0,0
13068.0,0,0,1
13069.0,0,3,3
13070.0,3,0,0
13072.0,3,0,0
13075.0,2,1,2
13077.0,0,3,2
13078.0,0,3,3
13079.0,0,0,0
13080.0,3,0,0
13081.0,0,3,3
13082.0,2,2,3
13083.0,0,1,0
13085.0,3,1,1
13089.0,0,3,3
13090.0,0,3,3
13091.0,1,1,1
13092.0,2,1,1
13093.0,3,3,3
13094.0,1,1,3
13095.0,2,0,0
13097.0,1,3,3
13098.0,0,3,3
13099.0,2,0,0
13101.0,3,0,0
13102.0,0,3,3
13103.0,1,0,0
13104.0,0,1,2
13106.0,2,0,0
13107.0,1,2,2
13108.0,3,0,1
13109.0,2,2,2
13110.0,1,3,2
13113.0,0,3,3
13115.0,0,3,3
13116.0,2,1,1
13117.0,1,2,2
13118.0,1,2,2
13120.0,3,0,0
13121.0,3,2,0
13122.0,2,2,2
13124.0,2,3,3
13126.0,0,3,3
13127.0,2,0,0
13130.0,2,0,0
13131.0,1,2,2
13132.0,3,0,0
13133.0,3,0,0
13134.0,2,2,3
13135.0,3,0,3
13136.0,2,3,3
13137.0,0,3,3
13138.0,1,2,2
13139.0,0,3,3
13140.0,2,2,1
13141.0,2,3,3
13142.0,1,1,1
13144.0,3,0,0
13145.0,1,0,1
13146.0,1,0,0
13147.0,0,0,2
13148.0,1,3,3
13149.0,0,2,3
13151.0,3,2,2
13153.0,0,0,1
13155.0,1,2,2
13157.0,1,2,3
13158.0,2,2,2
13159.0,0,3,2
13160.0,1,0,0
13161.0,3,0,0
13162.0,2,2,3
13165.0,1,2,2
13166.0,3,1,1
13167.0,1,2,2
13168.0,1,3,2
13169.0,2,0,2
13170.0,1,1,0
13171.0,1,2,1
13173.0,0,2,1
13174.0,0,3,3
13176.0,1,2,1
13177.0,2,0,0
13178.0,1,3,3
13182.0,1,0,0
13183.0,0,2,3
13184.0,0,3,3
13185.0,3,0,0
13186.0,1,2,2
13187.0,3,1,0
13188.0,0,0,0
13189.0,1,1,0
13192.0,2,2,2
13193.0,2,1,0
13194.0,2,0,0
13196.0,0,3,3
13198.0,0,3,3
13199.0,0,3,3
13200.0,1,2,2
13203.0,0,2,2
13207.0,0,0,0
13208.0,2,3,2
13209.0,1,3,3
13210.0,2,1,1
13211.0,0,2,2
13212.0,1,3,2
13213.0,2,2,2
13216.0,3,0,1
13217.0,2,0,1
13218.0,2,0,0
13220.0,2,1,2
13221.0,3,2,2
13223.0,3,0,0
13224.0,2,3,3
13225.0,0,1,3
13226.0,3,0,0
13227.0,3,0,0
13228.0,2,0,1
13229.0,3,0,0
13230.0,0,3,3
13232.0,0,3,2
13233.0,2,2,1
13235.0,3,2,2
13236.0,1,1,2
13238.0,0,1,2
13239.0,3,1,1
13240.0,2,2,1
13242.0,2,0,0
13243.0,3,2,1
13244.0,2,1,0
13245.0,1,0,1
13246.0,1,3,3
13247.0,0,1,1
13248.0,2,1,1
13249.0,2,1,2
13253.0,3,1,2
13255.0,0,0,1
13256.0,0,0,0
13258.0,0,1,2
13259.0,2,2,0
13260.0,2,0,1
13261.0,3,0,2
13262.0,3,0,0
13263.0,0,3,3
13265.0,2,2,3
13266.0,0,3,3
13267.0,0,3,3
13268.0,0,3,3
13269.0,0,3,3
13270.0,3,0,1
13271.0,1,2,0
13272.0,1,0,0
13273.0,2,0,0
13276.0,2,1,1
13277.0,0,0,0
13278.0,1,2,1
13279.0,2,0,0
13280.0,2,2,2
13282.0,1,1,2
13283.0,2,0,0
13284.0,3,0,0
13285.0,1,3,3
13291.0,3,2,1
13292.0,1,1,1
13294.0,3,2,2
13295.0,3,0,0
13296.0,2,0,0
13297.0,0,2,3
13298.0,0,0,1
13299.0,3,0,0
13300.0,3,1,1
13301.0,2,2,1
13302.0,3,0,0
13304.0,3,1,0
13305.0,0,2,3
13307.0,2,0,0
13308.0,1,2,2
13309.0,0,3,2
13310.0,1,2,2
13311.0,0,1,1
13313.0,1,2,2
13314.0,0,2,2
13316.0,1,2,3
13317.0,2,3,3
13318.0,0,1,1
13319.0,0,3,3
13320.0,2,3,2
13321.0,2,0,1
13322.0,0,1,0
13323.0,0,1,2
13324.0,1,2,3
13325.0,2,0,2
13327.0,1,3,3
13328.0,3,0,2
13329.0,1,0,2
13330.0,2,2,2
13332.0,0,1,1
13334.0,2,3,3
13336.0,2,2,2
13338.0,3,1,1
13339.0,3,2,2
13340.0,1,3,3
13341.0,3,2,2
13343.0,3,1,1
13344.0,2,3,3
13345.0,3,1,1
13347.0,2,0,1
13348.0,2,0,0
13349.0,0,0,0
13350.0,0,1,2
13351.0,2,0,1
13352.0,2,1,1
13354.0,2,2,2
13355.0,2,1,2
13356.0,2,2,2
13357.0,3,2,1
13358.0,3,1,1
13359.0,2,1,1
13362.0,0,3,3
13363.0,0,2,2
13364.0,2,0,0
13365.0,1,3,3
13366.0,1,0,0
13368.0,3,1,1
13369.0,3,0,1
13370.0,3,1,2
13372.0,2,1,1
13373.0,2,3,3
13375.0,2,1,2
13376.0,2,2,2
13379.0,1,2,1
13381.0,1,3,3
13382.0,3,0,0
13384.0,1,3,3
13385.0,3,1,1
13388.0,2,1,2
13389.0,0,2,2
13390.0,2,0,1
13391.0,3,0,0
13394.0,0,3,3
13395.0,3,1,1
13396.0,1,2,2
13397.0,2,1,2
13398.0,3,1,1
13402.0,2,1,1
13403.0,0,0,0
13404.0,0,0,0
13405.0,2,1,1
13408.0,0,3,3
13410.0,1,1,2
13411.0,2,1,0
13414.0,2,1,2
13416.0,1,1,2
13417.0,0,1,1
13418.0,0,3,3
13419.0,2,0,0
13420.0,3,0,0
13421.0,1,3,3
13422.0,2,3,3
13425.0,2,2,2
13426.0,0,3,3
13427.0,1,1,1
13428.0,0,2,0
13429.0,0,2,2
13430.0,1,2,2
13431.0,2,2,2
13434.0,2,0,1
13435.0,0,3,3
13436.0,0,0,0
13437.0,0,3,3
13439.0,3,2,0
13441.0,2,0,0
13447.0,1,2,2
13448.0,0,3,3
13449.0,1,1,0
13450.0,1,2,3
13451.0,1,3,3
13452.0,3,0,1
13453.0,3,0,1
13455.0,1,2,2
13456.0,0,2,3
13458.0,0,3,3
13460.0,1,0,0
13461.0,1,1,2
13462.0,3,0,0
13464.0,2,1,2
13466.0,3,0,1
13467.0,0,2,2
13468.0,0,3,3
13470.0,2,0,0
13471.0,0,3,3
13473.0,2,1,1
13474.0,3,2,0
13475.0,3,2,2
13476.0,3,2,2
13477.0,1,2,2
13479.0,3,0,0
13481.0,1,3,3
13482.0,3,0,0
13483.0,2,0,0
13484.0,3,0,1
13485.0,3,1,1
13486.0,2,2,2
13487.0,2,1,1
13488.0,0,3,3
13489.0,2,0,1
13491.0,2,2,2
13492.0,2,2,2
13493.0,3,0,1
13494.0,3,1,1
13495.0,0,2,3
13496.0,0,1,1
13497.0,3,1,1
13499.0,0,2,2
13500.0,1,2,2
13501.0,3,2,2
13502.0,0,1,0
13503.0,2,0,0
13504.0,2,1,0
13505.0,2,3,3
13506.0,3,1,1
13507.0,0,3,3
13508.0,3,0,0
13509.0,0,2,2
13510.0,0,3,3
13512.0,3,0,0
13513.0,2,0,0
13514.0,2,0,0
13515.0,2,2,2
13516.0,1,2,2
13517.0,2,3,3
13518.0,2,1,1
13519.0,2,0,0
13520.0,2,2,3
13521.0,0,3,2
13522.0,1,0,0
13523.0,1,3,3
13524.0,1,1,2
13525.0,0,0,1
13527.0,1,3,3
13529.0,2,0,1
13531.0,3,1,1
13532.0,1,2,0
13533.0,3,2,0
13534.0,0,3,3
13536.0,0,3,3
13538.0,1,1,2
13539.0,2,1,1
13544.0,1,2,0
13546.0,0,2,1
13548.0,2,3,2
13549.0,1,2,2
13551.0,3,0,0
13552.0,2,3,3
13555.0,2,3,3
13557.0,1,1,1
13558.0,0,3,1
13560.0,0,1,0
13561.0,3,0,0
13562.0,2,2,3
13563.0,2,2,2
13564.0,3,2,3
13565.0,1,1,0
13566.0,1,3,2
13568.0,3,2,0
13569.0,0,2,1
13570.0,3,1,0
13571.0,0,3,3
13572.0,3,1,2
13573.0,1,1,0
13575.0,1,2,2
13576.0,0,3,3
13577.0,1,2,3
13579.0,0,1,1
13581.0,3,0,0
13583.0,3,2,2
13584.0,3,1,0
13587.0,2,0,2
13588.0,0,3,3
13589.0,0,1,1
13590.0,0,2,3
13591.0,2,2,2
13592.0,1,0,0
13593.0,2,3,3
13594.0,2,1,1
13596.0,0,3,2
13598.0,1,1,0
13599.0,0,3,3
13600.0,3,1,0
13601.0,1,2,2
13602.0,2,1,1
13603.0,1,1,0
13606.0,1,2,0
13607.0,1,2,2
13610.0,0,3,2
13611.0,2,2,2
13614.0,1,3,2
13615.0,3,1,1
13617.0,1,2,1
13618.0,3,0,0
13621.0,2,1,0
13623.0,1,2,2
13626.0,3,1,0
13627.0,2,2,2
13629.0,1,2,3
13630.0,0,2,3
13631.0,2,0,3
13632.0,1,3,3
13634.0,1,3,2
13635.0,2,2,2
13636.0,1,2,2
13637.0,2,3,2
13638.0,0,0,0
13639.0,2,1,2
13642.0,3,2,1
13643.0,1,1,1
13644.0,0,3,3
13645.0,2,0,0
13647.0,0,2,3
13649.0,3,1,1
13650.0,0,2,3
13651.0,1,0,0
13652.0,1,2,2
13654.0,1,3,3
13655.0,2,2,2
13656.0,3,2,1
13657.0,0,0,1
13658.0,0,3,3
13659.0,3,3,2
13662.0,2,2,2
13663.0,3,0,0
13666.0,2,0,0
13667.0,3,2,0
13668.0,0,3,3
13669.0,1,0,0
13670.0,2,1,1
13672.0,3,0,0
13673.0,1,2,1
13675.0,3,1,1
13678.0,3,0,0
13680.0,0,3,3
13681.0,0,2,2
13682.0,3,0,0
13684.0,3,1,0
13685.0,0,1,3
13686.0,3,0,0
13689.0,2,0,2
13690.0,2,0,0
13692.0,1,2,2
13694.0,0,3,3
13695.0,1,2,3
13697.0,1,0,0
13699.0,3,0,1
13700.0,1,3,3
13703.0,3,0,0
13704.0,0,3,3
13705.0,0,1,2
13706.0,3,1,1
13707.0,3,2,2
13708.0,3,2,0
13709.0,0,3,3
13710.0,1,0,0
13711.0,3,0,0
13712.0,3,0,0
13715.0,3,3,2
13716.0,3,1,0
13717.0,1,3,2
13718.0,3,0,0
13719.0,0,2,2
13720.0,2,2,2
13721.0,1,1,1
13722.0,2,2,3
13723.0,3,0,0
13725.0,1,3,3
13726.0,1,2,2
13727.0,1,1,1
13728.0,1,2,2
13730.0,2,2,2
13731.0,3,1,1
13732.0,1,1,1
13735.0,1,3,3
13736.0,0,3,2
13737.0,3,1,1
13739.0,1,0,0
13740.0,3,1,1
13741.0,2,1,1
13742.0,0,3,3
13743.0,0,1,2
13744.0,2,2,2
13745.0,3,1,0
13747.0,3,0,0
13748.0,2,1,2
13750.0,2,1,2
13751.0,3,0,0
13752.0,2,2,2
13753.0,3,1,2
13754.0,3,0,0
13755.0,0,3,3
13756.0,0,3,3
13758.0,0,3,3
13759.0,1,1,1
13760.0,2,2,0
13761.0,1,2,2
13762.0,3,0,0
13763.0,2,0,3
13764.0,2,3,2
13767.0,0,3,3
13769.0,0,3,3
13771.0,2,3,3
13772.0,1,3,2
13774.0,2,1,1
13777.0,0,3,3
13778.0,2,0,0
13780.0,0,2,1
13781.0,3,0,0
13782.0,0,3,2
13784.0,0,1,3
13786.0,3,0,0
13787.0,2,1,1
13790.0,0,2,1
13791.0,2,0,2
13792.0,2,0,0
13798.0,0,3,3
13799.0,2,1,2
13800.0,3,1,1
13801.0,2,1,1
13802.0,2,2,3
13803.0,3,0,0
13804.0,1,3,3
13805.0,2,0,2
13806.0,2,0,0
13807.0,3,0,0
13808.0,0,2,3
13809.0,3,0,0
13810.0,1,1,2
13811.0,3,0,2
13812.0,1,1,1
13813.0,1,2,2
13814.0,2,2,2
13815.0,1,3,3
13816.0,1,1,1
13817.0,1,1,1
13819.0,3,1,2
13821.0,3,2,1
13822.0,0,2,1
13823.0,1,1,2
13824.0,1,2,3
13826.0,3,0,0
13827.0,2,2,1
13828.0,1,0,0
13831.0,0,2,3
13832.0,1,0,0
13833.0,3,1,1
13835.0,1,2,2
13837.0,3,1,0
13838.0,0,3,2
13841.0,3,0,0
13842.0,2,3,3
13844.0,0,1,1
13845.0,2,0,1
13846.0,1,2,2
13848.0,2,0,2
13849.0,2,3,2
13850.0,2,2,2
13851.0,2,2,3
13853.0,2,1,2
13854.0,0,3,3
13856.0,3,0,1
13858.0,2,0,0
13859.0,3,1,0
13860.0,0,2,2
13862.0,1,3,3
13863.0,3,1,0
13865.0,2,1,1
13866.0,2,0,0
13867.0,1,2,2
13868.0,0,1,3
13869.0,2,3,3
13870.0,0,3,3
13871.0,1,3,3
13873.0,2,1,1
13874.0,3,1,1
13875.0,2,3,3
13876.0,2,0,0
13877.0,2,0,0
13878.0,2,1,2
13880.0,1,3,3
13881.0,0,3,3
13882.0,0,2,2
13883.0,0,3,3
13884.0,0,2,2
13885.0,3,1,1
13886.0,2,0,0
13887.0,3,1,1
13888.0,2,1,1
13889.0,2,0,1
13890.0,0,3,3
13892.0,1,1,1
13893.0,3,1,2
13894.0,1,1,1
13895.0,1,3,3
13897.0,1,0,1
13898.0,3,0,0
13899.0,0,1,1
13900.0,3,2,2
13901.0,2,3,3
13904.0,1,1,1
13908.0,2,3,3
13911.0,2,3,3
13914.0,0,1,1
13917.0,1,1,0
13918.0,1,1,2
13919.0,2,1,1
13922.0,3,0,0
13923.0,2,1,1
13924.0,0,3,3
13925.0,2,1,2
13926.0,1,0,0
13927.0,2,1,1
13928.0,0,1,1
13929.0,3,0,2
13930.0,2,0,1
13931.0,2,2,2
13932.0,3,0,1
13933.0,2,1,1
13934.0,3,1,2
13936.0,3,1,1
13937.0,3,0,0
13938.0,1,0,0
13939.0,1,2,1
13940.0,0,2,2
13941.0,1,2,3
13946.0,2,0,1
13947.0,2,0,0
13948.0,3,0,0
13949.0,0,3,3
13950.0,0,1,2
13951.0,3,1,2
13952.0,3,3,3
13953.0,0,1,3
13954.0,0,1,1
13955.0,3,1,1
13956.0,0,3,2
13959.0,2,2,1
13960.0,1,0,0
13962.0,1,0,0
13963.0,3,1,1
13967.0,3,0,0
13969.0,0,3,3
13971.0,1,3,3
13972.0,2,0,0
13973.0,3,0,0
13974.0,1,1,1
13975.0,1,3,3
13976.0,3,0,1
13978.0,0,0,0
13979.0,2,2,2
13980.0,2,0,0
13982.0,1,3,3
13983.0,1,3,3
13984.0,1,0,2
13985.0,0,3,3
13986.0,0,0,1
13988.0,1,3,3
13989.0,2,1,2
13990.0,3,0,1
13991.0,0,2,2
13992.0,1,0,0
13993.0,1,3,3
13994.0,0,3,3
13995.0,0,2,2
13999.0,0,3,3
14000.0,3,0,1
14001.0,1,1,3
14002.0,2,2,1
14004.0,1,3,3
14005.0,0,2,3
14006.0,2,1,2
14009.0,3,2,2
14012.0,3,0,1
14013.0,2,1,1
14014.0,2,1,1
14015.0,2,1,2
14016.0,3,3,3
14019.0,1,2,2
14020.0,0,1,1
14021.0,3,1,1
14022.0,3,1,1
14023.0,0,1,1
14024.0,2,0,1
14027.0,2,0,0
14029.0,2,0,1
14030.0,1,3,3
14031.0,0,3,3
14032.0,0,3,3
14034.0,1,2,1
14035.0,1,2,2
14036.0,3,1,1
14037.0,3,1,0
14038.0,2,2,2
14039.0,1,0,0
14040.0,1,3,3
14041.0,3,1,0
14044.0,1,3,1
14045.0,2,0,2
14046.0,3,0,0
14047.0,0,1,2
14048.0,3,2,1
14049.0,0,3,3
14050.0,1,2,2
14051.0,0,3,3
14052.0,1,2,0
14053.0,2,0,0
14054.0,2,0,0
14055.0,2,0,2
14056.0,0,3,3
14057.0,1,3,3
14059.0,3,0,0
14060.0,0,3,3
14062.0,0,3,3
14064.0,1,2,2
14066.0,3,0,0
14067.0,2,2,1
14068.0,3,1,0
14071.0,0,3,2
14073.0,1,0,0
14075.0,0,2,2
14076.0,2,2,0
14077.0,1,2,1
14078.0,2,2,2
14079.0,2,0,1
14080.0,1,0,0
14081.0,3,3,2
14082.0,3,1,0
14083.0,0,3,2
14085.0,0,3,3
14087.0,0,2,0
14088.0,0,3,3
14089.0,2,0,0
14090.0,3,0,0
14092.0,0,3,3
14093.0,0,3,1
14096.0,0,3,3
14098.0,1,1,0
14099.0,0,3,3
14100.0,2,1,0
14101.0,2,1,3
14102.0,0,2,2
14104.0,3,1,0
14105.0,3,2,2
14107.0,2,3,3
14108.0,1,1,1
14109.0,2,0,0
14110.0,0,3,3
14111.0,0,0,2
14112.0,1,3,3
14113.0,0,1,3
14114.0,3,0,1
14116.0,1,2,2
14117.0,3,0,0
14121.0,0,3,3
14124.0,2,0,1
14125.0,0,3,3
14126.0,0,0,2
14127.0,2,2,2
14128.0,2,2,1
14129.0,0,2,2
14130.0,3,2,1
14132.0,0,3,3
14133.0,2,1,1
14135.0,0,3,3
14138.0,0,2,2
14139.0,1,1,1
14140.0,0,2,2
14141.0,0,1,2
14142.0,3,1,1
14143.0,2,0,0
14145.0,1,0,3
14146.0,0,3,3
14147.0,2,0,1
14148.0,3,0,0
14149.0,3,1,1
14150.0,1,1,1
14152.0,2,2,1
14154.0,3,2,2
14155.0,3,0,0
14156.0,0,3,3
14157.0,1,2,1
14158.0,1,1,1
14159.0,1,3,3
14161.0,3,3,2
14162.0,3,1,0
14163.0,2,2,3
14164.0,2,1,2
14165.0,3,1,0
14167.0,1,2,1
14171.0,2,2,1
14173.0,0,1,1
14174.0,1,1,0
14175.0,2,3,3
14176.0,3,1,1
14177.0,2,2,1
14178.0,0,3,2
14179.0,1,3,2
14180.0,0,3,3
14184.0,2,1,1
14185.0,3,0,0
14188.0,1,2,3
14189.0,0,3,3
14191.0,0,3,3
14193.0,2,2,2
14194.0,0,3,3
14195.0,3,0,2
14196.0,2,0,1
14198.0,1,1,2
14199.0,3,0,0
14201.0,2,1,2
14204.0,0,2,0
14205.0,0,1,1
14206.0,3,1,1
14208.0,2,0,0
14209.0,0,2,3
14210.0,2,3,3
14211.0,2,3,3
14212.0,2,0,2
14214.0,1,2,2
14215.0,0,3,3
14216.0,0,2,3
14217.0,0,2,3
14218.0,1,0,0
14219.0,0,0,0
14220.0,3,1,1
14221.0,1,3,3
14222.0,3,1,2
14223.0,2,2,2
14224.0,2,3,2
14226.0,1,2,3
14227.0,1,3,3
14229.0,2,1,2
14231.0,3,2,2
14232.0,1,3,3
14233.0,1,1,2
14234.0,1,3,2
14235.0,2,2,3
14236.0,2,0,1
14237.0,3,0,0
14238.0,3,0,0
14239.0,1,3,3
14240.0,1,2,2
14241.0,3,0,0
14242.0,3,0,0
14243.0,0,3,3
14245.0,3,3,3
14246.0,2,2,2
14247.0,3,1,0
14248.0,3,0,0
14250.0,0,3,3
14251.0,0,2,3
14256.0,3,2,2
14257.0,2,3,3
14258.0,0,3,3
14259.0,2,0,0
14261.0,1,2,2
14262.0,0,3,3
14264.0,3,0,1
14265.0,2,1,1
14267.0,3,2,2
14270.0,3,1,1
14271.0,3,0,0
14272.0,2,1,1
14273.0,2,1,1
14276.0,2,2,2
14277.0,0,3,3
14280.0,3,0,0
14282.0,0,3,3
14284.0,1,1,1
14285.0,1,1,3
14286.0,1,3,3
14287.0,0,0,0
14288.0,3,0,1
14289.0,0,2,2
14290.0,0,3,3
14291.0,0,3,3
14292.0,0,2,3
14293.0,0,2,2
14295.0,1,0,0
14297.0,0,2,2
14298.0,0,3,3
14299.0,0,3,3
14300.0,1,0,0
14301.0,2,0,1
14304.0,3,0,1
14305.0,2,3,3
14306.0,2,1,3
14307.0,2,3,3
14309.0,0,3,3
14311.0,3,1,1
14312.0,1,2,2
14314.0,2,0,0
14315.0,1,3,3
14317.0,2,1,1
14320.0,3,1,1
14321.0,0,3,2
14323.0,2,1,1
14326.0,3,0,0
14327.0,3,0,1
14329.0,0,3,3
14331.0,2,1,1
14332.0,1,1,2
14333.0,2,0,1
14334.0,0,3,3
14335.0,0,2,1
14336.0,0,2,2
14338.0,3,1,1
14339.0,3,0,1
14340.0,3,0,0
14341.0,1,3,3
14342.0,1,1,1
14344.0,2,2,2
14345.0,1,0,0
14346.0,2,2,2
14348.0,3,1,1
14349.0,0,1,0
14350.0,3,1,0
14351.0,3,0,0
14352.0,3,2,2
14353.0,3,0,0
14354.0,0,0,0
14355.0,3,0,0
14356.0,2,1,2
14357.0,1,1,0
14359.0,1,2,2
14360.0,1,3,3
14362.0,1,1,0
14364.0,2,2,3
14367.0,0,3,3
14368.0,3,0,0
14371.0,3,0,0
14373.0,3,0,0
14375.0,3,2,0
14377.0,3,0,1
14379.0,1,2,1
14381.0,2,2,0
14382.0,1,3,1
14383.0,1,2,2
14385.0,0,0,0
14386.0,3,0,0
14387.0,1,3,3
14388.0,0,3,3
14389.0,2,2,2
14390.0,0,3,3
14393.0,3,0,0
14395.0,0,3,3
14396.0,2,2,1
14397.0,0,2,3
14400.0,3,1,1
14401.0,0,3,3
14403.0,2,1,2
14404.0,1,3,2
14406.0,2,0,0
14407.0,2,2,3
14408.0,0,3,3
14409.0,2,2,3
14410.0,2,3,2
14411.0,3,0,2
14412.0,1,2,2
14413.0,3,1,0
14414.0,2,2,2
14415.0,0,3,3
14416.0,1,0,1
14418.0,0,3,3
14419.0,0,3,2
14420.0,2,1,1
14421.0,2,1,2
14422.0,0,3,3
14423.0,3,0,0
14424.0,0,0,1
14426.0,1,3,3
14427.0,1,0,1
14428.0,0,3,2
14431.0,3,0,1
14432.0,0,3,3
14434.0,1,0,2
14436.0,2,0,0
14437.0,3,0,0
14438.0,3,0,0
14439.0,3,1,3
14440.0,0,2,3
14441.0,0,2,3
14442.0,3,2,2
14443.0,2,2,2
14446.0,0,3,2
14447.0,1,2,2
14448.0,0,1,1
14449.0,1,3,2
14450.0,3,1,1
14451.0,2,3,1
14452.0,0,2,0
14453.0,3,1,0
14456.0,0,3,3
14457.0,3,0,0
14459.0,3,1,3
14460.0,2,0,1
14461.0,3,3,3
14462.0,2,3,3
14463.0,2,0,1
14465.0,3,3,2
14466.0,1,2,3
14467.0,0,2,1
14470.0,0,2,1
14472.0,2,3,3
14473.0,2,0,0
14474.0,1,1,1
14475.0,2,2,2
14476.0,3,1,0
14477.0,1,0,2
14479.0,3,1,1
14480.0,0,0,0
14481.0,3,1,1
14482.0,1,3,3
14483.0,3,0,0
14484.0,1,0,1
14485.0,1,2,0
14487.0,1,3,2
14488.0,2,2,2
14489.0,3,1,1
14491.0,3,0,1
14493.0,0,3,3
14494.0,1,0,0
14495.0,1,0,0
14496.0,3,1,1
14497.0,3,1,1
14498.0,1,3,3
14499.0,1,3,2
14500.0,2,0,1
14501.0,3,0,0
14502.0,1,3,3
14503.0,0,3,3
14504.0,1,3,2
14505.0,0,3,3
14506.0,0,3,3
14507.0,1,2,2
14508.0,1,2,0
14511.0,0,2,2
14512.0,3,1,0
14513.0,2,0,1
14514.0,2,2,2
14515.0,0,3,3
14517.0,1,1,1
14518.0,2,0,0
14520.0,0,0,0
14522.0,1,0,2
14523.0,2,0,0
14524.0,1,3,3
14525.0,1,3,3
14527.0,0,3,3
14528.0,1,1,1
14529.0,2,3,1
14530.0,1,3,3
14532.0,3,2,2
14533.0,1,2,3
14534.0,0,3,3
14535.0,2,3,3
14536.0,3,1,0
14537.0,2,0,1
14538.0,2,1,1
14539.0,0,1,1
14540.0,0,2,2
14541.0,2,3,2
14542.0,3,0,0
14543.0,1,2,3
14544.0,1,3,3
14546.0,0,3,3
14547.0,0,3,3
14548.0,3,0,1
14549.0,3,2,0
14550.0,0,2,2
14551.0,1,0,0
14552.0,3,2,0
14553.0,1,3,2
14554.0,0,3,3
14555.0,2,1,1
14557.0,2,0,2
14560.0,0,2,3
14561.0,2,2,2
14562.0,0,3,3
14565.0,2,3,3
14566.0,2,0,2
14567.0,2,1,2
14569.0,0,0,0
14570.0,3,1,0
14572.0,0,3,3
14573.0,3,3,2
14576.0,3,0,0
14577.0,0,3,2
14578.0,0,1,0
14581.0,0,0,0
14582.0,1,0,0
14583.0,0,3,2
14584.0,3,2,2
14585.0,1,1,0
14586.0,3,1,0
14587.0,1,3,2
14589.0,3,0,0
14591.0,0,3,2
14592.0,1,3,1
14593.0,1,3,1
14594.0,0,2,1
14595.0,1,3,3
14597.0,0,2,2
14598.0,1,2,0
14600.0,3,1,1
14601.0,0,0,0
14603.0,3,0,1
14606.0,0,3,3
14607.0,0,2,3
14608.0,0,1,3
14609.0,2,0,1
14616.0,3,0,1
14618.0,0,0,1
14619.0,3,1,1
14620.0,3,1,1
14621.0,0,2,3
14622.0,3,1,1
14623.0,1,3,2
14624.0,2,0,0
14625.0,3,2,2
14626.0,1,3,3
14628.0,2,1,1
14629.0,0,3,2
14631.0,1,1,2
14632.0,3,0,0
14633.0,3,1,1
14636.0,1,1,1
14638.0,1,0,1
14639.0,2,3,3
14640.0,1,3,3
14641.0,1,0,0
14642.0,2,0,0
14643.0,3,1,2
14644.0,2,1,2
14645.0,3,1,1
14646.0,0,3,3
14647.0,3,1,0
14649.0,0,3,2
14651.0,2,3,1
14652.0,2,1,0
14653.0,0,3,3
14655.0,0,2,3
14656.0,3,2,0
14657.0,0,3,2
14658.0,0,1,0
14659.0,0,3,3
14660.0,2,1,0
14661.0,1,0,0
14662.0,1,3,2
14664.0,1,2,1
14665.0,2,2,3
14666.0,1,0,0
14667.0,0,3,3
14669.0,3,3,2
14670.0,3,3,1
14672.0,3,2,2
14673.0,0,2,3
14675.0,0,3,1
14676.0,1,2,3
14680.0,1,3,3
14681.0,2,0,1
14682.0,3,0,0
14684.0,1,3,2
14687.0,2,0,1
14688.0,0,3,3
14689.0,3,0,0
14690.0,1,2,1
14691.0,1,2,3
14692.0,2,2,1
14693.0,3,0,0
14696.0,0,3,3
14697.0,3,1,0
14698.0,0,3,2
14699.0,3,0,0
14700.0,1,3,3
14701.0,0,3,3
14702.0,0,3,3
14703.0,0,1,1
14704.0,0,3,2
14705.0,3,0,0
14708.0,0,1,2
14709.0,0,3,3
14710.0,0,3,1
14711.0,0,3,3
14712.0,1,1,2
14713.0,0,3,3
14714.0,1,0,0
14715.0,1,2,2
14716.0,1,2,1
14719.0,0,3,2
14720.0,0,1,1
14722.0,3,1,0
14723.0,0,3,2
14725.0,1,2,2
14727.0,3,0,0
14729.0,3,2,1
14730.0,0,3,3
14731.0,1,2,1
14732.0,0,3,3
14733.0,0,3,3
14735.0,0,3,3
14737.0,0,0,2
14738.0,1,2,2
14739.0,0,2,3
14740.0,3,2,2
14741.0,0,2,2
14744.0,0,1,2
14745.0,2,2,2
14747.0,3,1,1
14748.0,1,2,2
14752.0,1,0,1
14753.0,2,1,1
14754.0,1,1,1
14755.0,0,3,3
14756.0,0,1,2
14757.0,2,1,1
14758.0,3,2,2
14759.0,0,3,2
14760.0,3,0,0
14761.0,2,0,0
14762.0,3,1,0
14764.0,1,0,0
14765.0,1,1,0
14766.0,0,3,3
14768.0,0,0,0
14769.0,0,3,3
14770.0,3,2,2
14772.0,2,0,0
14775.0,2,2,2
14776.0,2,3,3
14778.0,2,1,2
14779.0,3,1,1
14780.0,2,1,1
14782.0,3,0,0
14784.0,1,0,0
14785.0,0,0,0
14788.0,0,1,2
14789.0,1,0,0
14790.0,0,2,2
14792.0,2,0,0
14793.0,1,0,0
14794.0,0,2,2
14795.0,3,0,0
14796.0,0,3,3
14798.0,2,0,0
14799.0,2,0,0
14800.0,1,3,3
14801.0,2,2,0
14803.0,3,2,2
14804.0,0,0,1
14805.0,0,2,1
14806.0,2,0,0
14808.0,1,3,3
14810.0,1,3,3
14813.0,3,1,0
14815.0,1,2,2
14816.0,3,0,0
14817.0,3,2,2
14818.0,2,2,1
14819.0,2,0,0
14820.0,1,1,1
14821.0,3,0,0
14823.0,3,2,1
14824.0,0,1,2
14825.0,0,3,3
14828.0,3,0,3
14829.0,1,2,2
14830.0,2,1,0
14834.0,0,2,3
14836.0,0,0,0
14837.0,2,3,2
14840.0,3,0,0
14841.0,2,3,3
14842.0,1,3,3
14844.0,2,3,3
14847.0,3,0,1
14849.0,1,3,3
14850.0,3,1,1
14851.0,1,1,1
14852.0,2,3,3
14853.0,1,0,1
14854.0,2,3,3
14855.0,2,1,1
14856.0,1,2,2
14857.0,2,2,2
14859.0,0,2,2
14860.0,1,0,0
14861.0,2,0,0
14862.0,1,2,2
14863.0,1,0,0
14865.0,0,0,0
14866.0,0,2,3
14867.0,3,1,2
14868.0,0,3,3
14869.0,0,2,2
14870.0,3,0,1
14871.0,0,2,1
14873.0,3,1,1
14875.0,2,2,2
14878.0,0,3,2
14880.0,2,2,2
14881.0,1,0,0
14882.0,1,0,1
14883.0,1,2,2
14885.0,2,0,2
14886.0,3,1,1
14887.0,2,0,3
14888.0,3,1,1
14889.0,3,0,0
14890.0,3,0,0
14891.0,3,1,1
14893.0,0,2,2
14894.0,2,1,1
14895.0,0,3,3
14896.0,3,2,1
14897.0,0,2,2
14898.0,1,3,2
14901.0,0,2,2
14902.0,1,1,1
14903.0,1,3,3
14904.0,0,2,2
14905.0,3,0,1
14907.0,0,3,3
14908.0,2,0,0
14910.0,0,1,1
14911.0,0,3,3
14912.0,0,1,2
14913.0,1,2,2
14915.0,2,0,1
14916.0,2,2,2
14918.0,2,2,2
14920.0,3,2,2
14921.0,1,2,2
14923.0,1,2,2
14924.0,3,0,1
14929.0,1,0,0
14930.0,2,3,3
14931.0,0,1,2
14932.0,3,0,1
14934.0,2,2,3
14935.0,3,0,3
14936.0,1,3,3
14937.0,2,1,2
14944.0,1,3,3
14946.0,0,0,0
14947.0,2,0,0
14948.0,1,2,2
14950.0,1,1,1
14951.0,2,1,1
14952.0,2,3,3
14953.0,1,2,0
14954.0,0,2,1
14957.0,3,0,0
14958.0,3,2,1
14959.0,2,2,2
14960.0,0,1,0
14961.0,0,3,3
14962.0,3,0,0
14963.0,0,3,2
14964.0,3,0,0
14965.0,2,2,1
14966.0,0,1,0
14967.0,1,0,1
14968.0,1,1,0
14970.0,2,1,2
14971.0,1,3,2
14972.0,2,1,0
14973.0,2,1,2
14974.0,1,1,0
14975.0,2,0,0
14976.0,2,2,2
14978.0,2,3,3
14981.0,3,0,0
14984.0,1,1,0
14985.0,3,2,0
14987.0,0,0,1
14988.0,3,1,1
14995.0,1,2,0
14997.0,1,1,1
14998.0,3,2,1
15000.0,1,2,1
15002.0,2,3,2
15004.0,3,3,2
15005.0,0,3,3
15006.0,2,3,1
15007.0,3,0,0
15009.0,0,3,2
15010.0,1,1,1
15012.0,2,3,1
15014.0,1,1,0
15016.0,3,1,0
15017.0,1,1,0
15018.0,1,1,1
15019.0,3,2,0
15021.0,0,3,3
15022.0,0,3,2
15023.0,0,3,3
15024.0,0,3,3
15025.0,1,2,1
15026.0,2,2,1
15027.0,1,1,2
15028.0,0,2,1
15030.0,2,0,1
15031.0,0,3,1
15032.0,3,2,3
15033.0,0,3,3
15034.0,0,3,3
15035.0,2,1,0
15036.0,2,3,1
15038.0,2,3,2
15039.0,0,3,3
15041.0,3,2,0
15042.0,3,0,0
15043.0,1,0,1
15044.0,1,3,3
15045.0,3,0,2
15046.0,0,3,3
15047.0,3,1,1
15048.0,2,2,1
15049.0,3,0,0
15050.0,1,2,3
15051.0,1,3,2
15052.0,3,1,0
15053.0,0,2,2
15054.0,0,3,0
15057.0,3,1,2
15058.0,1,3,3
15059.0,1,3,2
15060.0,0,3,0
15061.0,0,3,3
15062.0,2,2,2
15063.0,3,0,1
15065.0,1,3,3
15066.0,2,2,2
15067.0,2,2,3
15068.0,1,3,1
15069.0,3,2,2
15070.0,3,0,0
15071.0,2,1,2
15073.0,0,2,2
15074.0,2,2,2
15075.0,2,1,2
15076.0,3,2,2
15078.0,0,3,3
15079.0,3,2,2
15081.0,1,1,1
15083.0,3,0,0
15087.0,3,0,0
15088.0,1,2,2
15089.0,0,3,3
15090.0,3,1,1
15091.0,2,1,1
15092.0,3,1,1
15093.0,1,3,3
15095.0,2,2,2
15096.0,1,0,0
15097.0,0,1,0
15098.0,3,0,3
15099.0,2,1,1
15100.0,3,0,2
15101.0,0,0,1
15103.0,1,1,2
15104.0,3,2,2
15105.0,1,3,3
15106.0,0,2,2
15107.0,3,0,1
15108.0,2,2,2
15109.0,3,1,1
15110.0,1,1,2
15111.0,1,2,2
15113.0,0,2,3
15114.0,1,3,3
15115.0,1,1,1
15116.0,0,2,2
15117.0,0,2,2
15118.0,2,0,0
15119.0,3,0,0
15120.0,2,1,1
15121.0,1,1,1
15122.0,2,2,2
15123.0,0,3,3
15124.0,1,0,0
15125.0,1,3,3
15127.0,2,0,1
15128.0,2,3,2
15129.0,1,2,3
15130.0,3,1,1
15132.0,1,2,2
15133.0,2,1,2
15134.0,0,2,2
15135.0,3,0,0
15136.0,0,2,2
15139.0,3,0,0
15140.0,2,2,3
15142.0,1,1,1
15143.0,3,0,0
15144.0,0,3,3
15145.0,0,2,2
15146.0,3,2,2
15147.0,3,1,1
15148.0,0,1,0
15149.0,2,1,1
15150.0,0,3,3
15152.0,0,3,3
15153.0,1,1,1
15154.0,2,2,0
15156.0,0,2,2
15157.0,0,3,3
15158.0,1,0,1
15159.0,0,3,3
15160.0,3,0,0
15163.0,1,1,0
15164.0,2,3,2
15165.0,3,1,1
15167.0,3,1,0
15168.0,1,0,0
15171.0,3,0,2
15172.0,0,3,2
15174.0,3,0,0
15175.0,2,1,0
15178.0,3,0,0
15179.0,1,2,3
15180.0,3,0,0
15181.0,2,0,2
15182.0,3,1,1
15184.0,1,2,1
15185.0,2,1,1
15186.0,0,1,1
15187.0,0,2,3
15189.0,0,3,3
15192.0,2,2,2
15193.0,2,1,1
15194.0,0,3,3
15195.0,0,0,3
15197.0,0,1,2
15198.0,2,0,0
15199.0,2,0,2
15201.0,2,2,2
15203.0,1,3,3
15204.0,3,0,1
15205.0,2,1,1
15206.0,0,0,1
15208.0,0,2,2
15210.0,3,1,1
15211.0,2,2,2
15212.0,3,0,0
15213.0,3,1,1
15214.0,0,3,3
15215.0,1,1,2
15216.0,2,0,0
15218.0,0,3,3
15219.0,3,0,0
15220.0,2,3,3
15221.0,3,0,1
15222.0,3,0,1
15223.0,3,1,2
15224.0,3,0,1
15225.0,3,1,1
15226.0,3,0,0
15227.0,1,2,2
15228.0,2,3,3
15230.0,3,1,1
15232.0,2,1,1
15234.0,3,0,0
15235.0,3,3,3
15236.0,3,0,1
15237.0,0,2,2
15238.0,1,2,2
15239.0,0,2,2
15240.0,1,2,3
15241.0,2,3,3
15243.0,2,1,1
15244.0,2,1,1
15245.0,2,2,3
15246.0,3,1,1
15247.0,2,0,1
15249.0,1,3,3
15251.0,0,3,3
15252.0,1,2,2
15253.0,0,2,2
15254.0,2,1,0
15255.0,2,2,2
15256.0,3,0,0
15257.0,3,0,1
15258.0,3,1,1
15260.0,2,2,3
15261.0,2,1,0
15262.0,3,0,0
15263.0,2,0,0
15264.0,2,1,1
15265.0,3,2,2
15266.0,3,0,0
15267.0,1,0,3
15269.0,1,0,1
15270.0,0,1,3
15271.0,0,3,3
15272.0,2,2,2
15274.0,0,2,2
15275.0,1,1,1
15276.0,2,2,0
15277.0,1,0,0
15279.0,3,1,0
15280.0,3,0,0
15281.0,2,3,3
15286.0,1,0,0
15287.0,1,1,1
15288.0,1,2,3
15289.0,1,2,2
15290.0,0,3,3
15291.0,1,3,3
15292.0,3,1,0
15296.0,1,3,3
15297.0,0,1,1
15298.0,0,3,3
15299.0,2,0,3
15300.0,2,1,1
15301.0,1,3,3
15303.0,3,1,1
15304.0,2,1,2
15306.0,2,2,2
15307.0,2,0,0
15308.0,3,1,1
15311.0,0,3,3
15312.0,2,2,2
15313.0,2,0,0
15314.0,3,1,1
15315.0,2,1,1
15316.0,3,0,0
15318.0,0,1,1
15319.0,3,0,0
15320.0,1,1,0
15321.0,2,2,3
15322.0,2,2,2
15325.0,2,2,0
15326.0,3,1,1
15327.0,2,0,0
15329.0,1,2,2
15330.0,1,0,2
15332.0,3,1,3
15333.0,3,0,2
15334.0,3,2,1
15335.0,2,1,0
15339.0,2,2,1
15341.0,2,0,3
15342.0,2,1,1
15343.0,2,1,1
15344.0,0,1,1
15345.0,1,1,1
15346.0,3,0,0
15347.0,3,0,0
15348.0,2,0,0
15349.0,3,2,1
15350.0,3,0,0
15351.0,0,3,3
15353.0,3,2,2
15355.0,1,0,0
15356.0,1,3,3
15358.0,0,3,3
15360.0,1,0,1
15361.0,3,0,1
15363.0,3,0,1
15364.0,2,1,2
15365.0,1,3,3
15366.0,2,2,1
15367.0,2,2,3
15368.0,1,0,1
15370.0,1,2,3
15372.0,2,1,3
15373.0,0,3,3
15374.0,2,0,0
15376.0,1,3,2
15379.0,3,3,3
15380.0,0,1,3
15381.0,3,0,1
15382.0,0,3,3
15384.0,3,1,1
15385.0,1,0,1
15386.0,3,1,1
15388.0,3,0,0
15389.0,3,0,1
15392.0,0,2,2
15393.0,0,0,0
15394.0,0,2,3
15395.0,3,0,0
15396.0,2,0,0
15397.0,3,0,0
15398.0,0,2,2
15399.0,0,2,2
15400.0,2,0,2
15402.0,3,2,1
15405.0,3,0,1
15406.0,1,2,1
15407.0,1,3,2
15408.0,3,1,0
15410.0,2,3,3
15411.0,1,2,2
15412.0,3,0,0
15414.0,0,1,2
15415.0,3,2,1
15416.0,2,3,3
15417.0,2,1,1
15419.0,1,0,0
15421.0,2,2,2
15422.0,3,0,0
15423.0,1,0,0
15424.0,3,0,1
15426.0,1,3,2
15427.0,1,3,2
15428.0,0,0,0
15429.0,1,2,1
15432.0,1,0,0
15433.0,3,1,1
15434.0,0,2,2
15435.0,1,1,0
15436.0,0,3,2
15437.0,3,2,0
15438.0,2,1,0
15440.0,2,2,1
15442.0,3,0,1
15443.0,0,3,3
15444.0,0,3,2
15445.0,3,0,0
15447.0,3,0,0
15448.0,3,1,1
15449.0,1,2,2
15450.0,1,1,1
15452.0,1,2,1
15453.0,0,3,2
15454.0,3,1,0
15456.0,3,2,1
15457.0,3,2,0
15458.0,1,0,0
15460.0,3,2,0
15462.0,2,0,0
15463.0,1,0,0
15464.0,3,3,2
15465.0,1,2,3
15466.0,2,2,1
15467.0,0,2,1
15468.0,2,1,1
15469.0,1,1,1
15471.0,0,2,1
15472.0,2,2,1
15473.0,0,0,3
15475.0,2,1,1
15478.0,1,2,2
15480.0,2,2,2
15482.0,0,2,3
15483.0,3,2,0
15484.0,0,3,3
15485.0,1,2,3
15488.0,2,0,0
15489.0,1,2,2
15491.0,2,3,3
15492.0,1,1,1
15493.0,1,3,3
15494.0,1,3,2
15497.0,0,0,2
15498.0,0,3,3
15500.0,0,2,2
15502.0,0,3,3
15503.0,3,2,0
15504.0,2,0,0
15505.0,2,2,3
15506.0,1,3,2
15507.0,3,2,1
15508.0,3,2,2
15510.0,3,0,0
15511.0,0,3,2
15512.0,3,0,0
15513.0,1,3,3
15514.0,0,3,3
15516.0,1,0,0
15517.0,3,1,0
15518.0,2,3,3
15520.0,0,1,1
15521.0,1,3,3
15522.0,1,2,1
15523.0,2,0,1
15524.0,1,0,1
15525.0,0,3,2
15526.0,1,0,0
15527.0,1,3,3
15528.0,3,1,0
15529.0,1,3,3
15530.0,1,3,2
15531.0,0,3,3
15532.0,1,3,2
15533.0,1,2,2
15535.0,3,2,1
15537.0,3,1,0
15539.0,0,1,1
15540.0,0,0,0
15541.0,2,1,0
15543.0,3,1,0
15544.0,0,3,3
15545.0,2,2,0
15547.0,0,3,3
15549.0,2,3,3
15550.0,0,2,1
15551.0,1,1,1
15552.0,3,0,0
15553.0,2,2,1
15554.0,3,0,0
15555.0,0,3,3
15556.0,1,1,0
15557.0,1,1,1
15561.0,0,1,2
15562.0,3,0,0
15563.0,1,3,2
15565.0,1,0,0
15567.0,1,0,0
15568.0,0,2,2
15569.0,2,1,2
15570.0,0,3,3
15571.0,0,2,1
15572.0,0,3,3
15573.0,1,3,1
15574.0,3,3,2
15576.0,1,2,2
15577.0,3,1,0
15578.0,3,0,0
15579.0,2,2,1
15581.0,2,3,3
15582.0,1,2,2
15584.0,1,3,2
15585.0,3,1,1
15587.0,1,0,2
15589.0,3,1,1
15592.0,1,1,1
15593.0,2,0,0
15594.0,0,3,3
15596.0,2,2,2
15597.0,1,1,1
15598.0,2,0,0
15599.0,1,2,2
15601.0,0,3,3
15602.0,0,2,2
15603.0,2,0,0
15604.0,2,0,0
15605.0,1,2,2
15606.0,2,2,3
15607.0,3,0,0
15608.0,1,2,2
15609.0,3,0,0
15610.0,2,0,0
15611.0,0,2,2
15612.0,1,0,0
15615.0,0,3,3
15618.0,1,2,2
15619.0,0,0,1
15620.0,2,2,2
15621.0,0,0,2
15622.0,1,3,3
15623.0,2,1,0
15624.0,2,1,1
15625.0,2,2,2
15626.0,2,2,2
15628.0,0,3,3
15630.0,1,2,2
15632.0,0,3,3
15634.0,0,0,0
15636.0,2,1,2
15637.0,2,0,0
15639.0,2,1,1
15640.0,0,3,3
15641.0,2,3,3
15643.0,3,1,1
15644.0,3,3,2
15645.0,1,2,1
15646.0,3,1,1
15648.0,3,1,1
15649.0,3,0,2
15651.0,1,1,1
15652.0,2,1,1
15653.0,2,0,2
15654.0,0,1,2
15655.0,3,1,1
15656.0,1,2,2
15657.0,1,0,0
15658.0,3,2,2
15659.0,1,0,0
15660.0,1,2,2
15661.0,3,0,1
15663.0,2,0,0
15664.0,1,0,1
15665.0,3,3,3
15667.0,1,0,0
15668.0,3,0,0
15669.0,1,1,2
15670.0,3,0,0
15671.0,1,2,3
15673.0,2,3,3
15674.0,2,3,3
15675.0,2,1,1
15676.0,1,3,3
15677.0,1,1,1
15678.0,2,0,1
15679.0,1,3,2
15680.0,0,2,2
15681.0,1,2,2
15683.0,2,0,0
15687.0,0,3,3
15689.0,2,0,0
15690.0,0,1,0
15691.0,3,0,0
15692.0,1,0,0
15694.0,0,2,3
15695.0,3,1,1
15696.0,1,3,3
15699.0,0,1,1
15700.0,3,2,2
15701.0,0,3,2
15703.0,3,0,0
15704.0,2,3,3
15705.0,3,0,0
15706.0,2,2,2
15707.0,1,3,2
15708.0,1,3,3
15709.0,3,0,0
15712.0,0,2,2
15713.0,3,1,1
15714.0,0,1,1
15716.0,3,3,2
15717.0,3,0,0
15719.0,1,3,3
15720.0,1,3,1
15721.0,0,2,1
15722.0,1,2,3
15723.0,3,1,0
15724.0,3,0,0
15725.0,0,1,1
15727.0,0,3,3
15729.0,3,0,0
15730.0,2,2,2
15732.0,3,0,0
15733.0,3,0,0
15734.0,2,1,2
15737.0,0,2,2
15738.0,1,3,3
15739.0,2,0,1
15740.0,1,0,0
15743.0,0,2,2
15744.0,2,0,0
15745.0,1,2,2
15746.0,2,1,0
15747.0,0,2,2
15748.0,1,1,0
15749.0,3,0,3
15750.0,0,3,3
15752.0,1,3,3
15753.0,3,0,0
15754.0,2,1,1
15755.0,0,3,3
15756.0,2,3,1
15757.0,2,2,2
15758.0,1,0,0
15759.0,3,0,0
15762.0,2,1,1
15763.0,1,2,2
15764.0,2,3,3
15766.0,2,0,1
15768.0,2,1,1
15769.0,0,3,3
15773.0,0,0,1
15774.0,2,1,0
15775.0,3,0,0
15776.0,2,1,0
15777.0,3,1,2
15780.0,3,1,1
15781.0,1,1,1
15782.0,0,2,3
15783.0,0,0,0
15785.0,1,2,3
15786.0,1,3,3
15787.0,1,3,2
15789.0,3,1,1
15790.0,0,1,0
15791.0,1,2,2
15793.0,0,0,2
15795.0,3,2,1
15796.0,0,3,3
15797.0,2,0,3
15799.0,2,2,2
15800.0,2,3,2
15801.0,1,2,2
15802.0,3,0,1
15803.0,2,0,1
15804.0,0,3,3
15805.0,1,3,3
15806.0,1,1,2
15807.0,1,2,2
15808.0,3,3,3
15809.0,1,1,1
15810.0,2,2,2
15811.0,1,3,3
15812.0,2,1,3
15813.0,3,1,2
15814.0,0,2,3
15815.0,2,2,3
15819.0,1,3,3
15820.0,3,0,0
15821.0,1,2,1
15822.0,0,1,2
15823.0,3,0,0
15825.0,3,1,1
15826.0,2,2,2
15827.0,2,3,3
15829.0,2,2,1
15830.0,1,1,1
15831.0,2,2,2
15832.0,3,2,2
15834.0,2,3,3
15835.0,1,2,2
15836.0,1,0,0
15837.0,2,1,1
15838.0,0,3,3
15839.0,1,2,2
15840.0,2,1,1
15841.0,2,2,2
15843.0,3,0,0
15844.0,1,0,0
15845.0,0,3,3
15847.0,1,1,1
15850.0,1,2,0
15852.0,3,1,0
15853.0,2,1,0
15854.0,0,3,3
15855.0,2,2,2
15856.0,0,3,3
15857.0,1,0,0
15858.0,0,3,2
15860.0,1,3,2
15861.0,0,3,3
15862.0,0,3,2
15863.0,1,1,0
15864.0,1,1,3
15865.0,1,1,2
15866.0,2,2,0
15867.0,0,3,3
15869.0,3,0,0
15870.0,1,2,1
15872.0,0,3,1
15874.0,2,3,3
15877.0,0,3,1
15880.0,3,3,1
15881.0,3,1,1
15882.0,3,1,1
15883.0,0,2,1
15885.0,2,1,1
15886.0,2,0,0
15888.0,2,0,0
15889.0,3,2,1
15891.0,3,2,1
15894.0,3,1,0
15895.0,3,0,0
15897.0,3,1,0
15898.0,0,2,2
15899.0,3,0,0
15900.0,1,2,1
15901.0,0,3,1
15903.0,0,2,3
15904.0,0,1,0
15906.0,1,3,2
15907.0,0,3,2
15909.0,3,0,0
15910.0,0,3,2
15912.0,3,1,0
15916.0,0,3,2
15917.0,3,0,0
15918.0,3,1,1
15919.0,1,3,1
15920.0,3,2,0
15921.0,3,1,1
15922.0,3,0,1
15923.0,3,1,0
15925.0,3,0,0
15930.0,2,1,1
15932.0,0,3,3
15933.0,1,2,2
15935.0,3,0,1
15937.0,2,0,0
15938.0,2,1,1
15939.0,2,2,3
15940.0,3,0,0
15942.0,2,0,1
15944.0,3,0,1
15945.0,3,0,0
15947.0,2,1,3
15948.0,0,2,2
15949.0,0,1,1
15950.0,1,2,3
15951.0,0,1,2
15952.0,1,2,2
15953.0,0,2,2
15955.0,1,3,3
15957.0,1,2,1
15958.0,2,0,0
15963.0,1,1,1
15965.0,0,3,2
15967.0,1,2,1
15969.0,0,1,1
15970.0,3,0,1
15971.0,0,1,3
15973.0,3,0,1
15974.0,1,3,3
15975.0,2,1,1
15976.0,3,2,1
15977.0,0,2,2
15978.0,2,2,2
15980.0,2,2,3
15981.0,1,2,3
15983.0,1,3,2
15984.0,0,3,3
15985.0,2,1,2
15986.0,1,0,0
15987.0,0,3,2
15988.0,1,1,0
15990.0,1,2,2
15992.0,0,0,0
15993.0,0,3,3
15994.0,2,1,1
15996.0,2,3,2
15998.0,1,3,3
16000.0,0,0,3
16003.0,1,3,3
16005.0,0,3,1
16006.0,3,0,0
16007.0,1,3,3
16008.0,1,1,1
16009.0,1,2,2
16010.0,3,2,1
16011.0,0,3,3
16012.0,1,2,2
16013.0,0,3,3
16014.0,1,3,1
16015.0,0,3,2
16016.0,0,3,2
16017.0,1,1,0
16018.0,1,1,1
16019.0,1,3,3
16020.0,0,2,2
16022.0,3,2,1
16023.0,1,3,2
16024.0,0,2,0
16025.0,1,1,1
16026.0,1,1,0
16027.0,2,0,2
16029.0,1,3,3
16030.0,3,1,1
16031.0,2,2,1
16033.0,0,3,3
16034.0,3,1,1
16036.0,2,2,2
16037.0,3,1,2
16038.0,0,1,1
16040.0,2,2,2
16041.0,1,0,3
16042.0,1,2,2
16043.0,1,1,2
16045.0,2,2,2
16048.0,3,0,0
16049.0,1,3,2
16050.0,3,0,0
16052.0,2,1,1
16053.0,1,2,2
16054.0,3,2,2
16055.0,3,0,0
16056.0,1,2,1
16057.0,0,3,3
16059.0,2,3,2
16062.0,0,2,2
16063.0,3,1,1
16065.0,3,2,1
16066.0,0,3,2
16070.0,1,1,2
16071.0,1,1,1
16072.0,3,1,1
16073.0,3,0,0
16076.0,0,3,3
16078.0,3,0,0
16079.0,0,1,2
16080.0,2,0,0
16081.0,2,3,3
16083.0,2,1,2
16084.0,3,1,1
16085.0,1,3,2
16086.0,2,1,2
16091.0,3,1,1
16092.0,2,2,2
16093.0,2,0,0
16094.0,0,2,2
16096.0,3,0,1
16097.0,3,0,0
16098.0,2,2,3
16099.0,1,1,2
16101.0,2,2,2
16102.0,1,2,3
16103.0,0,2,2
16104.0,2,1,0
16105.0,3,0,1
16106.0,2,0,0
16107.0,0,1,3
16108.0,2,2,2
16109.0,3,1,1
16110.0,1,3,2
16112.0,3,0,0
16113.0,3,1,0
16114.0,3,0,0
16115.0,0,3,3
16116.0,3,1,1
16117.0,3,1,0
16119.0,0,0,1
16120.0,2,1,2
16121.0,2,3,2
16122.0,2,1,2
16123.0,2,0,1
16124.0,3,0,0
16125.0,3,0,0
16126.0,1,3,3
16127.0,1,1,1
16128.0,0,2,3
16131.0,2,2,3
16133.0,0,3,3
16134.0,1,1,1
16135.0,3,1,1
16136.0,2,1,2
16139.0,1,1,1
16140.0,2,1,2
16141.0,2,1,1
16142.0,3,1,1
16143.0,0,3,3
16144.0,3,0,0
16145.0,0,3,3
16146.0,3,1,2
16147.0,2,1,1
16148.0,3,0,0
16149.0,0,1,0
16150.0,1,3,3
16152.0,3,1,3
16153.0,1,2,3
16156.0,0,3,3
16157.0,0,1,1
16159.0,3,0,1
16160.0,2,1,2
16161.0,0,3,3
16162.0,3,0,0
16163.0,3,0,2
16164.0,0,1,2
16168.0,0,2,3
16169.0,0,2,3
16170.0,1,3,3
16171.0,2,0,0
16172.0,2,2,2
16173.0,0,2,2
16174.0,2,1,2
16175.0,2,2,2
16177.0,1,0,1
16178.0,2,0,0
16179.0,2,0,0
16180.0,2,3,3
16181.0,2,0,0
16182.0,2,1,3
16183.0,2,0,1
16184.0,2,2,2
16185.0,0,1,1
16186.0,1,3,3
16187.0,1,3,3
16188.0,1,2,2
16189.0,0,0,0
16190.0,1,0,0
16191.0,0,3,3
16193.0,3,1,1
16198.0,2,0,1
16200.0,0,3,2
16201.0,0,3,3
16202.0,3,1,1
16203.0,2,1,1
16204.0,1,2,1
16205.0,1,2,2
16206.0,2,2,1
16207.0,1,1,1
16208.0,1,2,1
16209.0,2,2,3
16210.0,0,3,3
16211.0,2,1,1
16212.0,1,1,2
16213.0,2,0,0
16214.0,3,2,2
16215.0,2,0,0
16216.0,3,1,2
16217.0,3,0,0
16218.0,1,2,3
16221.0,1,2,2
16222.0,3,3,2
16224.0,2,2,2
16225.0,1,3,2
16226.0,3,0,0
16227.0,3,0,1
16229.0,2,2,2
16230.0,3,1,1
16232.0,1,1,2
16233.0,2,1,1
16235.0,1,2,2
16236.0,2,1,1
16239.0,2,1,1
16240.0,1,3,3
16241.0,0,3,3
16242.0,0,3,3
16243.0,1,2,1
16244.0,3,2,2
16245.0,1,2,2
16247.0,3,0,0
16248.0,2,0,0
16249.0,2,2,3
16250.0,3,1,1
16253.0,2,3,3
16255.0,0,3,3
16256.0,3,0,2
16257.0,3,0,0
16258.0,1,3,3
16260.0,1,1,2
16261.0,0,3,2
16265.0,0,3,3
16266.0,2,2,2
16268.0,2,2,1
16270.0,3,2,2
16271.0,0,3,2
16272.0,2,1,1
16274.0,3,2,1
16275.0,3,1,1
16276.0,3,0,2
16278.0,2,1,1
16279.0,1,3,2
16281.0,2,0,3
16282.0,3,0,0
16283.0,0,3,2
16284.0,1,3,2
16287.0,3,0,0
16292.0,2,0,0
16293.0,1,3,3
16295.0,0,2,2
16297.0,3,1,0
16298.0,1,1,1
16302.0,2,0,0
16303.0,1,3,3
16305.0,2,1,1
16306.0,3,1,1
16308.0,1,0,3
16309.0,2,2,2
16311.0,0,1,1
16313.0,0,0,0
16315.0,3,0,0
16316.0,2,3,3
16317.0,2,2,2
16318.0,1,1,1
16319.0,3,0,1
16320.0,3,2,2
16321.0,2,0,1
16322.0,0,1,1
16323.0,3,0,0
16324.0,2,3,1
16325.0,1,1,1
16326.0,0,3,3
16327.0,0,3,3
16330.0,0,1,0
16332.0,1,3,2
16333.0,0,2,3
16337.0,1,0,0
16338.0,3,0,0
16339.0,3,1,0
16340.0,2,3,1
16341.0,1,2,3
16342.0,2,0,1
16343.0,0,2,1
16344.0,3,0,0
16345.0,1,1,1
16347.0,0,2,2
16348.0,1,3,2
16349.0,3,0,0
16350.0,1,2,2
16351.0,3,0,0
16352.0,0,1,1
16353.0,0,2,3
16354.0,2,1,1
16356.0,3,1,0
16357.0,1,1,1
16358.0,0,3,3
16359.0,0,2,3
16360.0,0,3,3
16361.0,0,3,2
16362.0,1,2,2
16363.0,2,0,0
16364.0,0,2,2
16365.0,0,2,2
16366.0,1,1,1
16367.0,1,3,2
16368.0,0,2,1
16369.0,1,3,2
16370.0,2,3,2
16372.0,1,2,1
16374.0,2,3,1
16376.0,0,3,2
16377.0,3,0,2
16378.0,3,1,1
16379.0,0,3,3
16380.0,2,1,3
16383.0,2,3,1
16384.0,2,1,1
16385.0,2,2,1
16386.0,1,2,1
16387.0,3,0,0
16389.0,2,1,2
16392.0,3,2,0
16393.0,0,3,3
16394.0,2,2,2
16395.0,2,3,2
16398.0,3,2,3
16399.0,1,2,1
16400.0,2,1,0
16401.0,0,3,3
16402.0,3,2,0
16403.0,3,0,0
16404.0,2,1,1
16405.0,3,0,0
16406.0,1,2,0
16407.0,0,3,3
16409.0,1,3,3
16411.0,1,2,0
16412.0,2,1,0
16413.0,2,1,0
16414.0,1,0,0
16415.0,1,2,0
16416.0,1,2,2
16418.0,1,3,2
16419.0,2,2,2
16422.0,0,3,3
16423.0,1,1,1
16424.0,3,0,0
16425.0,3,1,0
16426.0,0,3,3
16427.0,3,0,0
16429.0,2,0,0
16430.0,2,0,0
16431.0,3,2,1
16432.0,2,0,0
16433.0,1,0,0
16434.0,1,3,2
16438.0,0,3,2
16440.0,0,3,3
16441.0,2,1,1
16442.0,0,3,1
16444.0,1,2,1
16445.0,1,2,0
16446.0,0,0,3
16447.0,2,1,0
16448.0,3,1,0
16449.0,3,1,2
16450.0,3,0,1
16451.0,2,0,0
16454.0,1,0,0
16455.0,2,2,3
16456.0,2,3,3
16457.0,3,0,0
16458.0,0,3,3
16460.0,1,3,2
16461.0,3,1,0
16462.0,2,0,0
16463.0,1,2,2
16464.0,1,3,2
16466.0,1,3,2
16468.0,2,0,0
16469.0,1,3,1
16470.0,2,3,2
16471.0,3,0,0
16473.0,3,1,1
16474.0,0,3,3
16475.0,2,1,1
16477.0,2,3,3
16478.0,1,0,1
16479.0,0,1,0
16480.0,2,2,2
16482.0,0,1,0
16483.0,3,1,0
16484.0,3,1,1
16485.0,2,2,1
16488.0,1,1,1
16491.0,1,1,2
16493.0,2,2,2
16494.0,3,2,2
16495.0,0,2,2
16496.0,0,2,2
16497.0,1,3,3
16498.0,3,0,0
16499.0,3,1,1
16500.0,0,0,1
16503.0,2,2,2
16504.0,1,2,1
16505.0,1,0,2
16506.0,1,0,0
16509.0,3,0,1
16510.0,3,0,0
16511.0,1,3,2
16513.0,0,1,2
16515.0,2,3,2
16516.0,1,0,0
16517.0,3,0,0
16518.0,2,1,1
16519.0,1,0,0
16520.0,3,3,2
16523.0,0,3,3
16525.0,0,3,3
16526.0,3,0,0
16527.0,2,0,0
16528.0,0,0,0
16529.0,3,1,1
16531.0,1,2,2
16532.0,0,0,3
16533.0,1,3,2
16535.0,0,1,1
16536.0,2,2,1
16539.0,0,2,2
16542.0,2,0,0
16545.0,3,0,1
16546.0,3,1,2
16549.0,0,3,3
16550.0,2,3,3
16551.0,2,1,2
16552.0,3,0,1
16553.0,3,2,3
16554.0,1,2,2
16555.0,1,0,0
16556.0,2,3,3
16557.0,1,0,0
16558.0,0,3,3
16560.0,1,2,2
16561.0,0,1,1
16563.0,2,1,2
16565.0,3,0,0
16566.0,0,1,1
16567.0,3,1,2
16569.0,0,0,0
16570.0,0,3,3
16571.0,1,2,2
16572.0,2,2,2
16573.0,2,2,1
16574.0,2,1,1
16581.0,3,0,0
16582.0,2,0,1
16583.0,3,0,0
16584.0,2,1,2
16586.0,3,0,1
16587.0,3,0,0
16589.0,2,1,1
16591.0,2,0,0
16592.0,0,3,3
16593.0,1,1,1
16594.0,2,2,0
16595.0,2,2,1
16596.0,0,0,0
16597.0,0,0,0
16598.0,3,0,0
16600.0,0,2,2
16601.0,1,1,0
16602.0,1,1,1
16603.0,2,1,1
16607.0,0,3,3
16609.0,0,3,3
16610.0,3,0,0
16611.0,3,0,0
16612.0,1,2,2
16613.0,2,1,1
16614.0,3,1,1
16616.0,0,1,1
16617.0,3,0,0
16618.0,1,2,3
16619.0,3,0,0
16620.0,0,0,0
16621.0,2,1,2
16623.0,3,0,0
16624.0,2,2,2
16625.0,3,1,1
16626.0,0,3,3
16627.0,2,1,1
16628.0,1,3,3
16629.0,2,2,1
16633.0,0,3,3
16634.0,3,0,0
16637.0,1,2,2
16638.0,1,2,3
16639.0,1,2,2
16641.0,2,0,0
16642.0,0,1,2
16643.0,3,1,1
16644.0,3,2,2
16647.0,3,0,0
16648.0,1,1,0
16650.0,2,1,1
16652.0,2,3,3
16653.0,0,2,2
16654.0,2,1,1
16655.0,0,3,3
16656.0,1,2,3
16657.0,0,3,2
16658.0,3,0,0
16659.0,3,0,0
16660.0,0,0,2
16665.0,3,0,0
16666.0,1,1,0
16667.0,2,2,1
16668.0,0,1,0
16669.0,1,3,2
16670.0,0,3,3
16671.0,1,0,3
16672.0,0,3,3
16674.0,2,2,1
16676.0,1,2,2
16678.0,0,3,3
16679.0,3,0,0
16680.0,1,0,0
16681.0,2,2,3
16682.0,0,1,2
16684.0,0,3,3
16685.0,2,2,1
16686.0,1,3,3
16688.0,0,2,2
16689.0,2,0,1
16690.0,2,0,0
16692.0,3,0,2
16693.0,2,2,1
16696.0,2,0,1
16697.0,3,1,0
16698.0,3,0,3
16700.0,0,3,3
16701.0,0,3,3
16705.0,0,3,3
16706.0,1,3,1
16708.0,1,1,1
16709.0,2,2,3
16710.0,1,3,3
16711.0,0,1,2
16712.0,0,3,3
16713.0,1,3,3
16714.0,3,2,2
16715.0,2,1,0
16716.0,3,0,2
16717.0,1,3,3
16718.0,3,2,1
16719.0,0,3,3
16720.0,1,1,0
16721.0,3,1,0
16722.0,0,3,3
16723.0,2,2,1
16725.0,3,3,2
16726.0,1,3,2
16727.0,3,2,0
16728.0,1,3,2
16729.0,1,3,3
16730.0,2,2,2
16732.0,1,1,1
16734.0,2,2,1
16735.0,2,3,3
16737.0,2,0,1
16738.0,3,0,0
16739.0,3,0,1
16742.0,1,0,1
16743.0,1,3,3
16744.0,0,3,2
16745.0,2,3,3
16746.0,0,3,3
16747.0,1,2,2
16748.0,0,2,2
16750.0,1,2,1
16751.0,1,1,3
16752.0,3,0,0
16753.0,2,1,0
16754.0,3,0,3
16755.0,2,3,2
16756.0,3,0,0
16757.0,3,0,0
16758.0,2,1,1
16759.0,0,2,2
16761.0,2,0,1
16762.0,1,2,2
16763.0,3,1,1
16764.0,0,3,3
16765.0,3,0,0
16766.0,3,1,2
16767.0,1,3,3
16768.0,1,2,1
16769.0,3,1,1
16770.0,2,3,2
16771.0,1,3,3
16773.0,2,1,0
16774.0,2,2,1
16775.0,0,3,3
16776.0,2,2,1
16777.0,2,2,0
16778.0,2,0,0
16779.0,0,3,3
16780.0,2,2,1
16781.0,3,0,1
16782.0,0,3,3
16784.0,1,0,0
16788.0,2,3,1
16789.0,0,0,0
16790.0,0,2,2
16791.0,1,3,3
16792.0,3,0,0
16793.0,2,0,0
16794.0,0,3,2
16795.0,3,2,1
16796.0,2,1,0
16800.0,0,3,2
16801.0,3,2,2
16803.0,2,1,1
16804.0,1,2,1
16805.0,3,2,1
16806.0,2,3,2
16807.0,3,2,2
16808.0,2,1,0
16809.0,1,3,2
16810.0,3,0,1
16811.0,0,1,1
16812.0,3,0,1
16813.0,0,3,3
16814.0,0,3,3
16816.0,2,1,1
16817.0,0,2,2
16818.0,0,3,3
16820.0,2,1,1
16823.0,3,1,1
16824.0,0,1,1
16825.0,1,1,2
16826.0,2,1,1
16828.0,2,0,0
16829.0,3,0,0
16830.0,1,1,1
16832.0,3,0,0
16833.0,0,2,2
16834.0,3,1,1
16835.0,2,0,0
16836.0,1,0,0
16837.0,1,3,3
16838.0,3,1,1
16839.0,0,3,3
16841.0,1,3,3
16842.0,2,2,2
16843.0,1,3,3
16846.0,1,0,0
16847.0,1,0,0
16848.0,2,0,0
16849.0,3,0,0
16850.0,3,1,1
16851.0,0,1,1
16852.0,0,0,0
16855.0,1,1,1
16856.0,0,0,0
16858.0,3,0,1
16859.0,3,2,2
16861.0,2,0,0
16863.0,1,1,1
16866.0,2,0,0
16869.0,1,3,2
16871.0,1,3,3
16872.0,2,0,2
16873.0,0,3,3
16875.0,2,3,3
16877.0,0,3,2
16878.0,2,0,0
16880.0,1,3,2
16881.0,2,0,1
16882.0,2,1,2
16883.0,3,1,0
16884.0,1,1,1
16885.0,0,3,1
16887.0,1,1,0
16889.0,3,3,2
16891.0,0,3,2
16892.0,0,2,1
16893.0,3,2,0
16895.0,2,2,0
16897.0,3,1,0
16898.0,1,3,1
16899.0,0,3,2
16900.0,0,2,2
16902.0,2,2,3
16903.0,1,2,1
16904.0,0,3,3
16905.0,0,3,3
16906.0,2,2,1
16907.0,1,3,2
16909.0,2,1,1
16910.0,0,3,2
16912.0,1,3,3
16913.0,3,0,0
16914.0,1,1,0
16915.0,0,2,1
16916.0,1,3,1
16917.0,3,0,1
16918.0,1,3,2
16919.0,3,3,3
16921.0,2,2,0
16923.0,0,3,3
16924.0,1,2,2
16926.0,3,0,0
16927.0,2,0,1
16928.0,2,3,3
16929.0,0,2,2
16930.0,1,2,1
16931.0,0,3,3
16932.0,2,2,0
16933.0,0,2,1
16934.0,2,2,2
16936.0,1,2,0
16938.0,0,3,3
16940.0,2,3,3
16942.0,0,3,3
16943.0,3,1,2
16945.0,1,3,3
16947.0,3,1,1
16948.0,2,1,1
16949.0,0,2,2
16950.0,2,2,2
16951.0,2,2,2
16952.0,2,0,0
16953.0,1,0,0
16954.0,0,2,3
16955.0,3,1,1
16956.0,0,0,1
16957.0,3,0,1
16959.0,2,0,0
16960.0,1,3,1
16961.0,2,0,0
16963.0,3,0,0
16965.0,3,1,0
16966.0,0,1,3
16967.0,3,1,1
16968.0,0,1,1
16969.0,1,2,1
16971.0,1,1,1
16976.0,3,0,0
16978.0,2,1,1
16979.0,0,2,3
16980.0,3,2,2
16982.0,2,1,1
16983.0,0,3,3
16984.0,2,3,3
16985.0,0,3,3
16986.0,1,0,3
16987.0,0,3,2
16988.0,0,0,0
16989.0,0,0,2
16990.0,3,0,0
16992.0,0,2,2
16996.0,1,1,2
16997.0,3,0,2
16998.0,3,0,0
16999.0,1,1,1
17001.0,0,3,3
17002.0,2,2,2
17004.0,1,2,2
17006.0,0,2,2
17007.0,1,2,2
17010.0,1,0,0
17011.0,1,0,0
17014.0,0,2,1
17015.0,1,3,3
17017.0,0,3,3
17018.0,1,0,2
17019.0,0,3,2
17022.0,1,0,0
17024.0,1,0,0
17025.0,2,0,1
17026.0,3,0,0
17027.0,2,3,2
17029.0,2,0,2
17030.0,2,0,0
17031.0,0,1,1
17033.0,2,1,2
17034.0,0,1,2
17035.0,3,1,1
17037.0,2,2,2
17038.0,1,1,0
17040.0,2,0,1
17041.0,1,2,2
17042.0,0,2,2
17043.0,1,3,3
17044.0,1,0,2
17045.0,2,1,1
17046.0,3,1,1
17047.0,2,2,2
17048.0,2,2,2
17049.0,0,3,3
17050.0,2,3,3
17051.0,3,2,0
17052.0,1,2,1
17053.0,2,0,1
17054.0,1,2,2
17058.0,2,2,2
17059.0,1,3,3
17060.0,3,0,0
17061.0,2,2,3
17062.0,3,2,1
17063.0,1,2,2
17064.0,2,2,2
17068.0,0,3,3
17069.0,1,3,3
17070.0,2,2,1
17071.0,1,3,3
17073.0,0,3,2
17075.0,0,2,2
17076.0,1,1,2
17078.0,1,1,1
17079.0,2,0,0
17080.0,1,0,0
17081.0,1,2,0
17082.0,1,2,3
17083.0,2,2,2
17084.0,1,3,3
17085.0,2,3,2
17086.0,0,2,3
17088.0,1,3,3
17090.0,0,2,3
17091.0,0,3,3
17092.0,1,3,3
17094.0,3,0,0
17095.0,1,2,2
17096.0,0,2,2
17097.0,0,3,2
17100.0,1,2,2
17101.0,0,2,2
17102.0,3,0,0
17105.0,3,2,1
17107.0,1,3,3
17109.0,1,3,2
17110.0,3,0,0
17111.0,1,1,0
17114.0,0,3,2
17115.0,0,1,2
17117.0,3,0,0
17118.0,3,0,0
17119.0,0,1,1
17120.0,3,1,1
17122.0,2,0,0
17123.0,3,0,1
17124.0,3,1,0
17125.0,1,1,0
17126.0,3,3,2
17128.0,3,0,0
17131.0,0,3,3
17133.0,0,1,3
17134.0,2,1,1
17135.0,0,2,2
17138.0,3,1,1
17139.0,0,3,3
17140.0,3,1,1
17142.0,3,0,1
17144.0,0,2,2
17146.0,2,1,2
17147.0,1,2,3
17148.0,2,0,0
17152.0,3,0,3
17153.0,1,0,0
17154.0,2,1,1
17155.0,0,1,0
17157.0,0,0,1
17158.0,1,2,2
17159.0,1,3,2
17160.0,1,3,3
17162.0,1,3,3
17163.0,1,0,0
17164.0,1,3,3
17165.0,3,0,0
17166.0,1,0,0
17169.0,2,2,2
17171.0,3,0,0
17172.0,2,0,1
17173.0,0,2,3
17174.0,3,0,0
17175.0,1,2,2
17176.0,3,0,0
17179.0,3,2,2
17180.0,2,3,2
17181.0,2,1,0
17183.0,0,2,3
17186.0,1,0,0
17187.0,3,0,0
17188.0,0,2,3
17189.0,2,2,1
17190.0,2,1,1
17191.0,1,3,3
17193.0,1,1,3
17194.0,3,1,0
17197.0,1,1,2
17198.0,1,2,2
17201.0,2,1,1
17203.0,1,3,3
17204.0,3,2,2
17205.0,2,0,1
17206.0,2,0,0
17211.0,1,3,3
17212.0,3,0,0
17213.0,1,3,3
17214.0,2,3,2
17217.0,3,0,0
17218.0,0,3,3
17219.0,1,1,0
17220.0,1,3,3
17221.0,0,2,1
17222.0,2,1,1
17223.0,3,2,1
17226.0,3,1,1
17227.0,1,2,2
17228.0,0,3,3
17229.0,2,2,1
17230.0,3,2,3
17231.0,0,3,3
17232.0,0,1,1
17233.0,1,1,0
17234.0,3,0,0
17235.0,1,1,1
17236.0,0,3,2
17237.0,0,1,1
17238.0,0,3,3
17239.0,3,0,1
17242.0,2,1,2
17243.0,0,3,3
17244.0,2,1,2
17245.0,3,0,0
17247.0,0,2,0
17248.0,2,2,1
17250.0,0,2,1
17251.0,3,1,0
17252.0,2,2,1
17253.0,1,1,0
17254.0,0,3,0
17255.0,1,2,0
17256.0,2,0,0
17259.0,3,3,1
17262.0,2,0,2
17263.0,3,1,0
17265.0,2,3,1
17266.0,0,2,1
17267.0,2,1,1
17268.0,2,0,2
17272.0,1,3,3
17274.0,1,1,0
17277.0,3,2,2
17278.0,3,0,0
17279.0,2,0,0
17282.0,2,2,3
17284.0,2,3,2
17286.0,1,2,0
17287.0,1,3,2
17288.0,0,3,2
17289.0,1,3,2
17290.0,0,3,1
17291.0,3,0,1
17293.0,0,3,3
17295.0,1,2,1
17297.0,0,2,0
17298.0,2,1,1
17299.0,0,2,1
17301.0,1,2,0
17302.0,0,2,2
17303.0,3,2,0
17306.0,0,2,3
17309.0,2,0,0
17311.0,2,2,2
17312.0,2,0,1
17313.0,1,1,3
17314.0,1,3,3
17315.0,0,3,3
17317.0,1,0,3
17320.0,2,2,2
17321.0,0,3,2
17323.0,0,3,2
17324.0,0,2,2
17325.0,3,0,0
17329.0,0,1,1
17330.0,1,0,1
17331.0,2,0,0
17333.0,2,1,1
17334.0,3,0,1
17337.0,3,3,3
17338.0,0,3,3
17339.0,2,0,0
17340.0,1,3,3
17341.0,3,3,2
17343.0,3,0,0
17344.0,1,1,0
17345.0,0,2,1
17346.0,0,3,3
17347.0,2,0,0
17348.0,0,3,2
17349.0,3,0,0
17350.0,0,2,2
17351.0,1,1,1
17353.0,2,0,3
17354.0,1,0,2
17356.0,3,1,0
17357.0,1,2,1
17358.0,3,2,1
17359.0,0,0,0
17360.0,0,3,1
17361.0,1,1,1
17362.0,3,1,1
17364.0,0,3,3
17365.0,0,3,3
17367.0,3,1,0
17368.0,1,3,3
17370.0,2,1,1
17371.0,0,2,1
17372.0,1,3,2
17373.0,1,2,1
17374.0,3,1,1
17375.0,3,2,1
17376.0,2,1,0
17377.0,1,3,3
17379.0,0,2,1
17381.0,0,3,3
17382.0,2,0,0
17383.0,0,2,0
17384.0,1,0,1
17385.0,0,2,0
17386.0,0,1,3
17387.0,1,2,2
17388.0,2,0,2
17389.0,0,3,3
17391.0,3,0,1
17392.0,3,2,1
17394.0,3,0,0
17396.0,1,1,3
17397.0,1,2,2
17398.0,2,1,1
17400.0,2,3,3
17402.0,0,2,3
17403.0,1,1,0
17404.0,0,3,3
17405.0,0,2,2
17406.0,3,3,3
17408.0,3,0,0
17409.0,3,0,2
17410.0,0,2,2
17411.0,0,1,2
17412.0,0,2,2
17414.0,1,0,2
17415.0,2,0,1
17416.0,1,3,3
17418.0,1,1,1
17419.0,0,3,3
17420.0,1,1,1
17422.0,0,3,3
17423.0,1,1,2
17425.0,1,2,2
17426.0,0,3,3
17427.0,2,0,0
17428.0,0,3,3
17429.0,2,1,1
17430.0,1,0,0
17431.0,3,2,1
17432.0,1,2,1
17433.0,2,2,0
17434.0,0,3,3
17436.0,0,0,0
17438.0,3,0,1
17440.0,3,0,0
17442.0,1,3,3
17443.0,3,0,1
17444.0,3,3,3
17446.0,3,0,0
17447.0,1,1,1
17449.0,0,3,3
17450.0,0,3,3
17451.0,0,2,3
17453.0,0,1,1
17454.0,3,2,1
17455.0,3,0,0
17456.0,3,0,0
17457.0,2,1,3
17458.0,0,2,1
17459.0,1,3,1
17460.0,2,1,1
17461.0,1,3,2
17462.0,2,1,2
17463.0,0,3,3
17464.0,3,0,0
17466.0,0,1,2
17468.0,0,0,0
17469.0,0,2,3
17470.0,1,2,2
17472.0,3,3,2
17475.0,2,0,0
17480.0,2,1,1
17481.0,0,2,2
17483.0,2,1,1
17486.0,3,1,1
17489.0,2,1,1
17490.0,0,2,3
17491.0,0,3,3
17492.0,3,0,1
17495.0,0,1,1
17496.0,3,0,0
17498.0,2,0,0
17499.0,3,1,1
17500.0,0,0,2
17501.0,3,1,0
17502.0,0,1,2
17503.0,0,1,1
17504.0,3,3,3
17505.0,3,2,2
17506.0,2,0,0
17507.0,3,2,1
17508.0,3,1,1
17509.0,2,3,3
17510.0,1,1,1
17511.0,0,3,3
17512.0,1,3,3
17513.0,2,0,1
17514.0,2,1,0
17515.0,1,2,1
17516.0,0,3,2
17517.0,3,0,0
17519.0,0,2,3
17520.0,2,1,1
17521.0,1,2,2
17522.0,0,2,2
17523.0,0,1,1
17524.0,3,0,0
17525.0,3,0,1
17526.0,0,1,2
17527.0,2,2,2
17528.0,0,3,3
17530.0,0,3,3
17531.0,3,0,0
17534.0,2,0,0
17535.0,3,0,0
17536.0,3,0,0
17537.0,1,2,2
17538.0,1,0,0
17540.0,1,1,1
17542.0,3,1,0
17545.0,1,3,1
17548.0,3,0,0
17549.0,1,0,0
17550.0,3,2,0
17551.0,3,2,0
17552.0,2,2,2
17553.0,2,0,2
17554.0,0,2,3
17555.0,1,3,1
17556.0,3,0,0
17557.0,0,1,1
17560.0,2,1,2
17561.0,1,2,0
17562.0,0,2,2
17564.0,1,2,1
17566.0,0,3,2
17567.0,0,3,3
17569.0,3,1,1
17571.0,1,3,2
17572.0,2,0,0
17573.0,1,1,1
17574.0,3,0,0
17576.0,0,3,3
17578.0,3,0,0
17579.0,0,2,1
17580.0,3,2,0
17581.0,0,3,3
17582.0,3,1,0
17584.0,0,1,2
17585.0,2,3,2
17588.0,2,1,2
17589.0,2,3,3
17590.0,0,3,2
17591.0,2,3,3
17593.0,0,3,3
17594.0,2,2,2
17595.0,0,2,1
17596.0,1,3,3
17597.0,3,2,3
17600.0,0,0,0
17601.0,3,0,0
17602.0,0,3,3
17603.0,2,0,1
17604.0,3,2,1
17608.0,1,2,0
17609.0,1,3,2
17611.0,0,3,3
17612.0,2,3,3
17613.0,1,3,3
17614.0,2,2,1
17615.0,2,0,1
17616.0,3,0,1
17618.0,0,2,2
17619.0,3,2,0
17620.0,2,0,0
17621.0,1,1,2
17623.0,1,1,1
17624.0,0,2,2
17625.0,1,3,3
17628.0,2,0,0
17629.0,0,3,3
17630.0,3,1,1
17631.0,0,1,1
17633.0,1,2,2
17634.0,1,3,3
17636.0,1,1,0
17637.0,1,1,1
17639.0,3,0,0
17640.0,2,0,1
17642.0,2,1,2
17643.0,3,0,0
17644.0,0,3,3
17646.0,3,2,2
17647.0,2,0,0
17648.0,2,2,3
17649.0,2,2,2
17650.0,1,0,0
17651.0,0,3,3
17652.0,1,3,3
17653.0,1,2,2
17654.0,3,1,0
17655.0,0,2,3
17656.0,2,2,3
17658.0,1,1,1
17659.0,0,3,3
17660.0,2,2,0
17663.0,1,2,3
17664.0,1,2,1
17666.0,0,1,2
17667.0,2,3,3
17668.0,0,0,1
17669.0,1,2,3
17670.0,3,0,0
17671.0,0,2,2
17672.0,1,3,3
17673.0,0,3,2
17674.0,2,1,1
17675.0,0,3,3
17676.0,0,2,2
17677.0,0,3,3
17678.0,3,0,0
17679.0,2,1,3
17680.0,1,0,0
17682.0,0,3,3
17684.0,1,0,0
17685.0,0,3,3
17686.0,0,3,3
17690.0,1,3,3
17691.0,3,1,0
17692.0,2,2,2
17693.0,2,0,0
17694.0,2,0,0
17695.0,2,1,2
17696.0,1,3,3
17697.0,3,1,1
17698.0,3,0,0
17700.0,0,3,3
17701.0,3,1,1
17702.0,1,2,3
17703.0,1,2,2
17704.0,3,1,2
17705.0,0,3,3
17706.0,0,3,3
17707.0,3,0,0
17708.0,3,1,0
17709.0,3,0,0
17711.0,0,1,1
17712.0,1,1,1
17714.0,3,0,0
17715.0,3,0,1
17716.0,1,3,3
17718.0,3,0,0
17719.0,1,3,3
17720.0,1,2,2
17722.0,2,3,3
17723.0,2,0,3
17724.0,2,1,2
17725.0,0,3,3
17727.0,0,2,2
17728.0,0,3,3
17730.0,0,3,3
17731.0,2,2,2
17732.0,3,1,0
17733.0,1,1,2
17734.0,2,2,2
17735.0,0,3,3
17736.0,0,1,1
17737.0,0,0,0
17738.0,1,2,3
17739.0,0,2,3
17742.0,2,0,1
17744.0,0,3,3
17746.0,3,0,0
17747.0,2,0,0
17749.0,3,1,2
17750.0,0,3,3
17752.0,3,0,0
17754.0,0,2,3
17757.0,0,3,3
17758.0,1,3,3
17759.0,0,2,2
17760.0,1,1,0
17761.0,1,1,2
17763.0,3,0,0
17764.0,1,2,2
17765.0,3,2,1
17767.0,0,1,0
17768.0,0,3,3
17769.0,0,3,3
17770.0,3,1,2
17771.0,2,2,0
17772.0,0,2,0
17774.0,2,3,2
17775.0,3,0,0
17777.0,1,3,1
17779.0,1,2,1
17781.0,3,0,0
17783.0,2,2,0
17785.0,2,0,0
17786.0,2,2,0
17787.0,3,3,3
17788.0,2,0,2
17789.0,3,0,0
17790.0,1,3,3
17791.0,1,0,0
17793.0,1,2,1
17795.0,3,2,1
17796.0,1,2,2
17797.0,1,3,2
17799.0,1,3,3
17800.0,1,3,2
17802.0,2,3,2
17805.0,2,0,1
17806.0,0,2,1
17809.0,0,2,3
17811.0,0,3,3
17812.0,0,3,2
17813.0,0,3,3
17816.0,1,0,0
17817.0,0,1,1
17819.0,2,2,3
17824.0,2,0,0
17827.0,0,3,3
17828.0,1,2,3
17829.0,3,1,2
17830.0,0,1,1
17831.0,1,0,0
17832.0,1,2,0
17835.0,0,2,1
17836.0,1,1,0
17837.0,1,3,2
17838.0,1,3,3
17839.0,1,2,1
17841.0,0,3,3
17843.0,3,1,0
17844.0,2,0,0
17846.0,2,0,3
17848.0,2,2,2
17849.0,3,1,1
17850.0,3,3,3
17852.0,0,1,0
17854.0,3,0,1
17855.0,3,0,0
17856.0,0,0,2
17857.0,0,2,3
17858.0,0,3,3
17859.0,3,1,0
17860.0,3,2,0
17861.0,0,3,3
17862.0,3,0,1
17863.0,2,3,3
17864.0,0,3,1
17865.0,1,3,3
17866.0,3,0,1
17867.0,1,2,2
17869.0,2,1,1
17870.0,0,3,3
17871.0,3,0,0
17873.0,2,2,3
17874.0,3,2,2
17877.0,3,0,0
17878.0,1,1,1
17879.0,3,0,0
17880.0,3,1,1
17881.0,3,0,0
17883.0,0,3,1
17884.0,0,3,2
17885.0,0,2,0
17886.0,1,3,2
17887.0,2,0,0
17888.0,1,2,2
17889.0,3,1,0
17890.0,3,2,1
17891.0,3,1,0
17892.0,2,1,0
17893.0,3,0,0
17894.0,2,3,2
17895.0,1,0,0
17896.0,1,0,0
17897.0,3,3,1
17898.0,2,1,0
17899.0,3,1,0
17900.0,3,0,0
17901.0,1,1,0
17904.0,1,1,0
17905.0,2,1,2
17906.0,3,0,0
17908.0,3,2,0
17911.0,0,1,1
17912.0,3,1,1
17913.0,2,2,1
17914.0,0,2,1
17917.0,1,2,1
17919.0,2,1,2
17920.0,0,3,3
17921.0,2,3,2
17923.0,3,0,0
17924.0,0,1,3
17925.0,3,0,0
17926.0,2,1,1
17928.0,1,1,0
17929.0,0,0,2
17930.0,1,1,3
17931.0,2,2,1
17932.0,1,2,2
17934.0,2,1,2
17935.0,2,1,0
17936.0,0,2,1
17937.0,0,2,3
17939.0,3,0,0
17940.0,1,1,3
17941.0,2,0,0
17942.0,0,0,0
17946.0,3,1,0
17947.0,1,0,0
17948.0,3,0,1
17949.0,0,2,3
17950.0,2,2,1
17951.0,1,1,2
17954.0,0,3,3
17955.0,3,1,1
17956.0,3,0,0
17957.0,2,1,0
17958.0,2,0,1
17960.0,3,1,0
17961.0,1,3,2
17962.0,3,1,0
17964.0,1,3,1
17965.0,1,3,3
17966.0,1,2,2
17967.0,3,2,0
17968.0,3,2,0
17969.0,3,0,0
17970.0,3,1,1
17972.0,3,1,0
17973.0,2,0,1
17974.0,1,3,2
17975.0,0,3,3
17976.0,3,2,1
17977.0,1,1,0
17978.0,3,0,0
17979.0,1,3,2
17980.0,3,1,2
17984.0,3,2,0
17985.0,1,1,1
17986.0,2,0,0
17987.0,3,0,0
17988.0,0,1,0
17990.0,3,1,1
17991.0,3,0,0
17994.0,2,2,2
17995.0,3,0,0
17997.0,2,3,3
17999.0,1,2,1
18001.0,0,2,1
18004.0,3,1,0
18005.0,0,2,0
18006.0,1,1,1
18008.0,2,1,3
18009.0,3,1,0
18010.0,3,0,0
18011.0,3,1,0
18013.0,3,1,0
18014.0,1,1,0
18015.0,0,2,0
18016.0,1,3,2
18017.0,2,0,1
18018.0,2,1,0
18019.0,2,0,0
18022.0,1,3,1
18024.0,3,1,1
18027.0,2,1,0
18030.0,0,0,0
18032.0,3,0,0
18033.0,2,1,0
18034.0,1,3,1
18035.0,1,2,2
18036.0,1,2,1
18037.0,3,1,0
18040.0,1,1,1
18041.0,0,3,3
18042.0,2,0,0
18043.0,1,3,1
18044.0,0,3,3
18045.0,1,2,0
18048.0,3,0,0
18050.0,3,0,0
18053.0,2,1,0
18055.0,0,3,3
18056.0,3,1,1
18058.0,0,0,0
18059.0,1,1,0
18061.0,1,2,3
18062.0,3,1,2
18064.0,2,0,2
18065.0,0,3,3
18066.0,2,0,1
18067.0,1,1,1
18068.0,3,0,0
18069.0,1,3,3
18071.0,3,1,1
18072.0,3,1,0
18073.0,2,2,3
18074.0,3,0,1
18075.0,1,3,3
18077.0,0,3,3
18078.0,3,1,1
18079.0,1,3,3
18080.0,1,0,2
18081.0,1,0,1
18082.0,1,2,2
18084.0,0,0,0
18085.0,3,1,2
18086.0,3,0,0
18087.0,2,0,3
18088.0,2,1,0
18092.0,0,2,3
18093.0,2,1,3
18094.0,2,2,3
18095.0,3,1,1
18096.0,0,3,2
18097.0,0,3,3
18099.0,2,1,0
18101.0,0,1,0
18102.0,0,3,3
18104.0,1,1,2
18105.0,1,1,0
18106.0,3,1,1
18108.0,3,0,0
18109.0,0,3,3
18110.0,1,2,0
18112.0,0,1,1
18113.0,3,0,0
18114.0,3,1,0
18116.0,2,3,2
18117.0,1,2,1
18118.0,0,3,3
18119.0,3,1,0
18120.0,3,0,0
18121.0,3,1,2
18122.0,0,3,3
18123.0,1,1,1
18125.0,1,3,2
18126.0,2,2,0
18127.0,1,2,1
18129.0,3,0,0
18130.0,0,2,2
18133.0,3,0,2
18135.0,1,1,2
18136.0,2,1,2
18138.0,3,0,0
18139.0,0,3,3
18142.0,3,0,2
18143.0,2,2,2
18144.0,0,2,3
18145.0,0,3,3
18146.0,2,0,0
18147.0,1,0,0
18149.0,1,0,1
18150.0,1,1,1
18151.0,2,1,1
18154.0,0,1,1
18155.0,2,1,1
18156.0,0,3,2
18158.0,0,1,1
18159.0,3,1,1
18160.0,2,1,1
18161.0,0,2,2
18164.0,1,1,1
18165.0,3,0,0
18167.0,1,1,2
18168.0,3,3,2
18169.0,2,0,0
18170.0,1,1,2
18171.0,2,2,2
18172.0,0,3,3
18173.0,2,1,3
18174.0,0,0,0
18176.0,3,1,1
18177.0,1,2,2
18178.0,2,2,2
18179.0,0,2,3
18180.0,0,3,3
18181.0,1,2,1
18183.0,3,1,1
18184.0,0,0,0
18185.0,3,0,0
18188.0,0,2,3
18189.0,2,2,2
18190.0,3,0,0
18191.0,3,0,0
18192.0,2,2,2
18193.0,3,0,0
18194.0,2,0,2
18196.0,2,3,2
18198.0,0,3,3
18200.0,2,1,0
18202.0,3,2,2
18203.0,3,1,0
18204.0,2,3,3
18205.0,1,1,1
18209.0,1,0,0
18210.0,0,3,3
18211.0,1,2,1
18212.0,3,2,0
18213.0,3,0,0
18215.0,2,0,0
18216.0,1,1,1
18217.0,1,1,1
18218.0,3,1,1
18219.0,0,3,3
18220.0,3,0,0
18221.0,1,2,2
18222.0,2,1,1
18223.0,0,3,3
18224.0,3,0,0
18225.0,0,3,3
18226.0,1,3,3
18227.0,3,0,0
18228.0,2,1,2
18229.0,0,3,3
18230.0,0,2,3
18231.0,3,3,3
18232.0,2,1,1
18233.0,3,0,1
18235.0,2,3,3
18236.0,1,2,2
18237.0,0,2,2
18239.0,3,2,2
18240.0,1,0,1
18241.0,0,3,3
18242.0,2,2,3
18245.0,0,3,3
18246.0,1,0,1
18248.0,2,2,2
18249.0,0,0,0
18250.0,3,1,1
18251.0,2,0,3
18252.0,1,2,1
18255.0,2,0,0
18257.0,1,3,3
18259.0,1,2,3
18260.0,3,3,3
18261.0,1,1,1
18262.0,2,0,0
18263.0,1,2,2
18265.0,2,2,2
18268.0,2,0,0
18269.0,3,0,0
18270.0,1,0,0
18272.0,0,3,3
18273.0,0,0,0
18274.0,1,0,0
18276.0,1,0,1
18277.0,2,0,0
18278.0,2,0,0
18280.0,3,0,0
18281.0,3,0,0
18282.0,0,0,0
18283.0,0,3,3
18287.0,1,2,3
